tarea4/memHZD.vcd
$date
	Tue Jun 30 09:16:37 2015
$end
$version
	Icarus Verilog
$end
$timescale
	1ps
$end
$scope module tester $end
$var wire 1 ! clk $end
$var wire 1 " reset $end
$scope module test $end
$var reg 1 # clk $end
$var reg 1 $ reset $end
$upscope $end
$scope module pegado $end
$var wire 1 ! clk $end
$var wire 37 % inputReg_EX_MEM [36:0] $end
$var wire 47 & inputReg_ID_EX [46:0] $end
$var wire 26 ' inputReg_IF_ID [25:0] $end
$var wire 11 ( inputReg_MEM_WB [10:0] $end
$var wire 37 ) outReg_EX_MEM [36:0] $end
$var wire 8 * outReg_EX_MEM_AluResult_EX [7:0] $end
$var wire 3 + outReg_EX_MEM_ControlAcum_EX [2:0] $end
$var wire 2 , outReg_EX_MEM_MemControl_EX [1:0] $end
$var wire 37 - outReg_EX_MEM_bar [36:0] $end
$var wire 10 . outReg_EX_MEM_wBrDir_EX [9:0] $end
$var wire 6 / outReg_EX_MEM_wInstr_EX [5:0] $end
$var wire 47 0 outReg_ID_EX [46:0] $end
$var wire 8 1 outReg_ID_EX_AcumA_ID [7:0] $end
$var wire 8 2 outReg_ID_EX_AcumB_ID [7:0] $end
$var wire 10 3 outReg_ID_EX_BrDir_ID [9:0] $end
$var wire 8 4 outReg_ID_EX_Constant_ID [7:0] $end
$var wire 3 5 outReg_ID_EX_ControlAcum_ID [2:0] $end
$var wire 2 6 outReg_ID_EX_MemControl_ID [1:0] $end
$var wire 6 7 outReg_ID_EX_Operation_ID [5:0] $end
$var wire 2 8 outReg_ID_EX_OutSelMux_ID [1:0] $end
$var wire 47 9 outReg_ID_EX_bar [46:0] $end
$var wire 26 : outReg_IF_ID [25:0] $end
$var wire 16 ; outReg_IF_ID_FetchedInstr [15:0] $end
$var wire 10 < outReg_IF_ID_NewPC [9:0] $end
$var wire 26 = outReg_IF_ID_bar [25:0] $end
$var wire 11 > outReg_MEM_WB [10:0] $end
$var wire 3 ? outReg_MEM_WB_ControlAcum_MEM [2:0] $end
$var wire 16 @ outReg_MEM_WB_DataToWB_MEM [15:0] $end
$var wire 11 A outReg_MEM_WB_bar [10:0] $end
$var wire 1 B regEnable $end
$var wire 1 " reset $end
$var wire 8 C wAcumA_ID [7:0] $end
$var wire 8 D wAcumB_ID [7:0] $end
$var wire 8 E wAluResult_EX [7:0] $end
$var wire 10 F wBrDir_EX [9:0] $end
$var wire 10 G wBrDir_ID [9:0] $end
$var wire 10 H wBrDir_IF [9:0] $end
$var wire 1 I wBrTaken_EX $end
$var wire 1 J wBrTaken_IF $end
$var wire 8 K wConstant_ID [7:0] $end
$var wire 3 L wControlAcum_EX [2:0] $end
$var wire 3 M wControlAcum_ID [2:0] $end
$var wire 3 N wControlAcum_ID_WB [2:0] $end
$var wire 3 O wControlAcum_MEM [2:0] $end
$var wire 8 P wDataToWB_MEM [7:0] $end
$var wire 8 Q wData_WB [7:0] $end
$var wire 16 R wFetchedInst_IF [15:0] $end
$var wire 6 S wInstr_EX [5:0] $end
$var wire 2 T wMemControl_EX [1:0] $end
$var wire 2 U wMemControl_ID [1:0] $end
$var wire 10 V wNewPC_IF [9:0] $end
$var wire 6 W wOperation_ID [5:0] $end
$var wire 2 X wOutSelMux_ID [1:0] $end
$var wire 1 Y wStall $end
$scope module etapa1 $end
$var wire 1 ! clk $end
$var wire 1 B enable $end
$var wire 10 Z iBr_dir [9:0] $end
$var wire 1 J iBr_taken $end
$var wire 16 [ oFetchedInst [15:0] $end
$var wire 10 \ oNew_pc [9:0] $end
$var wire 1 " reset $end
$var wire 10 ] wPc_pointer [9:0] $end
$scope module pcIF $end
$var wire 1 ! clk $end
$var wire 1 B enable $end
$var wire 10 ^ iBr_dir [9:0] $end
$var wire 1 J iBr_taken $end
$var wire 1 " reset $end
$var reg 10 _ oNew_pc [9:0] $end
$var reg 10 ` oPc_pointer [9:0] $end
$upscope $end
$scope module instructMem $end
$var wire 10 a iDir [9:0] $end
$var reg 16 b oInstruc [15:0] $end
$var reg 10 c rClear [9:0] $end
$upscope $end
$upscope $end
$scope module registro_IF_ID $end
$var wire 1 ! clk $end
$var wire 1 d clr $end
$var wire 1 B enable $end
$var wire 26 e in [25:0] $end
$var reg 26 f out [25:0] $end
$var reg 26 g out_bar [25:0] $end
$upscope $end
$scope module etapa2 $end
$var wire 10 h branchDir [9:0] $end
$var wire 8 i constant [7:0] $end
$var wire 3 j controlAcum_ID [2:0] $end
$var wire 3 k controlAcum_WB [2:0] $end
$var wire 8 l data [7:0] $end
$var wire 16 m instr [15:0] $end
$var wire 2 n memControl [1:0] $end
$var wire 10 o newPC [9:0] $end
$var wire 6 p operation [5:0] $end
$var wire 2 q outSelMux [1:0] $end
$var wire 8 r salidaAcumA [7:0] $end
$var wire 8 s salidaAcumB [7:0] $end
$scope module acumuladores $end
$var wire 3 t control [2:0] $end
$var wire 8 u data [7:0] $end
$var reg 8 v salidaAcumA [7:0] $end
$var reg 8 w salidaAcumB [7:0] $end
$upscope $end
$scope module decodificador $end
$var wire 8 x constant [7:0] $end
$var wire 16 y instr [15:0] $end
$var wire 6 z instrDecod [5:0] $end
$var wire 10 { instrInfo [9:0] $end
$var wire 10 | newPC [9:0] $end
$var wire 6 } operation [5:0] $end
$var wire 6 ~ saltoRel [5:0] $end
$var reg 10 !" branchDir [9:0] $end
$var reg 3 "" controlAcum [2:0] $end
$var reg 2 #" memControl [1:0] $end
$var reg 2 $" outSelMux [1:0] $end
$upscope $end
$upscope $end
$scope module registro_ID_EX $end
$var wire 1 ! clk $end
$var wire 1 " clr $end
$var wire 1 B enable $end
$var wire 47 %" in [46:0] $end
$var reg 47 &" out [46:0] $end
$var reg 47 '" out_bar [46:0] $end
$upscope $end
$scope module etapa3 $end
$var wire 8 (" ALU_OP_loadA [7:0] $end
$var wire 8 )" ALU_OP_loadB [7:0] $end
$var wire 8 *" HZDresult [7:0] $end
$var wire 8 +" HZDresult_bar [7:0] $end
$var wire 1 ! aluClk $end
$var wire 1 " aluReset $end
$var wire 10 ," branchDir_EX [9:0] $end
$var wire 10 -" branchDir_ID [9:0] $end
$var wire 1 I branchTaken $end
$var wire 1 ." exeHazardA $end
$var wire 1 /" exeHazardB $end
$var wire 8 0" iAcumA [7:0] $end
$var wire 8 1" iAcumB [7:0] $end
$var wire 6 2" iAluInstSel [5:0] $end
$var wire 8 3" iAluOper1 [7:0] $end
$var wire 8 4" iAluOper2 [7:0] $end
$var wire 8 5" iConst [7:0] $end
$var wire 3 6" iControlAcum_ID [2:0] $end
$var wire 2 7" iMemControl_ID [1:0] $end
$var wire 8 8" loadMemHzd [7:0] $end
$var wire 1 9" loadhazardA $end
$var wire 1 :" loadhazardB $end
$var wire 8 ;" oAluData [7:0] $end
$var wire 3 <" oControlAcum_EX [2:0] $end
$var wire 6 =" oInstr_EX [5:0] $end
$var wire 2 >" oMemControl_EX [1:0] $end
$var wire 6 ?" oldInstr_EX [5:0] $end
$var wire 6 @" oldInstr_EX_bar [5:0] $end
$var wire 1 A" oldStall $end
$var wire 1 B" oldStall_bar $end
$var wire 2 C" outSelMuxExe [1:0] $end
$var wire 8 D" realAluOp1 [7:0] $end
$var wire 8 E" realAluOp2 [7:0] $end
$var reg 1 F" stall $end
$scope module regEXEHazards $end
$var wire 1 ! clk $end
$var wire 1 " clr $end
$var wire 1 G" enable $end
$var wire 6 H" in [5:0] $end
$var reg 6 I" out [5:0] $end
$var reg 6 J" out_bar [5:0] $end
$upscope $end
$scope module regRESHazard $end
$var wire 1 ! clk $end
$var wire 1 " clr $end
$var wire 1 K" enable $end
$var wire 8 L" in [7:0] $end
$var reg 8 M" out [7:0] $end
$var reg 8 N" out_bar [7:0] $end
$upscope $end
$scope module regStall $end
$var wire 1 ! clk $end
$var wire 1 " clr $end
$var wire 1 O" enable $end
$var wire 1 Y in $end
$var reg 1 P" out $end
$var reg 1 Q" out_bar $end
$upscope $end
$scope module aluEx $end
$var wire 6 R" iAluInstSel [5:0] $end
$var wire 8 S" iAluOper1 [7:0] $end
$var wire 8 T" iAluOper2 [7:0] $end
$var wire 6 U" sReg [5:0] $end
$var reg 1 V" BAN $end
$var reg 1 W" BAZ $end
$var reg 1 X" BBN $end
$var reg 1 Y" BBZ $end
$var reg 1 Z" BCA $end
$var reg 1 [" BCB $end
$var reg 1 \" branchTaken $end
$var reg 8 ]" oAluData [7:0] $end
$upscope $end
$upscope $end
$scope module registro_EX_MEM $end
$var wire 1 ! clk $end
$var wire 1 ^" clr $end
$var wire 1 B enable $end
$var wire 37 _" in [36:0] $end
$var reg 37 `" out [36:0] $end
$var reg 37 a" out_bar [36:0] $end
$upscope $end
$scope module etapa4 $end
$var wire 10 b" iAddresReadNWrite [9:0] $end
$var wire 8 c" iAluDataEX [7:0] $end
$var wire 3 d" iControlAcum_EX [2:0] $end
$var wire 6 e" iInstr_EX [5:0] $end
$var wire 2 f" iOutMemSelect [1:0] $end
$var wire 1 ! memClk $end
$var wire 1 g" memHazard $end
$var wire 1 " memReset $end
$var wire 3 h" oControlAcum_MEM [2:0] $end
$var wire 8 i" oDataRamRead [7:0] $end
$var wire 8 j" oDataToWB [7:0] $end
$var wire 8 k" oldDataToWB [7:0] $end
$var wire 8 l" oldDataToWB_bar [7:0] $end
$var wire 6 m" oldInstr_MEM [5:0] $end
$var wire 6 n" oldInstr_MEM_bar [5:0] $end
$var wire 8 o" wDataMemIn [7:0] $end
$scope module regMemHazard $end
$var wire 1 ! clk $end
$var wire 1 " clr $end
$var wire 1 p" enable $end
$var wire 6 q" in [5:0] $end
$var reg 6 r" out [5:0] $end
$var reg 6 s" out_bar [5:0] $end
$upscope $end
$scope module regDataToWBHazard $end
$var wire 1 ! clk $end
$var wire 1 " clr $end
$var wire 1 t" enable $end
$var wire 8 u" in [7:0] $end
$var reg 8 v" out [7:0] $end
$var reg 8 w" out_bar [7:0] $end
$upscope $end
$scope module DATA_MEM $end
$var wire 1 ! clk $end
$var wire 8 x" iDataMemIn [7:0] $end
$var wire 10 y" iReadDataAddress [9:0] $end
$var wire 10 z" iWriteDataAddress [9:0] $end
$var wire 1 {" iWriteDataEnable $end
$var wire 1 |" memEnable $end
$var reg 8 }" oDataMemOut [7:0] $end
$upscope $end
$upscope $end
$scope module registro_MEM_WB $end
$var wire 1 ! clk $end
$var wire 1 ~" clr $end
$var wire 1 !# enable $end
$var wire 11 "# in [10:0] $end
$var reg 11 ## out [10:0] $end
$var reg 11 $# out_bar [10:0] $end
$upscope $end
$upscope $end
$upscope $end
$enddefinitions $end
#0
$dumpvars
bx $#
bx ##
bx "#
1!#
0~"
bx }"
x|"
x{"
bx z"
bx y"
bx x"
bx w"
bx v"
bx u"
1t"
bx s"
bx r"
bx q"
1p"
bx o"
bx n"
bx m"
bx l"
bx k"
bx j"
bx i"
bx h"
xg"
bx f"
bx e"
bx d"
bx c"
bx b"
bx a"
bx `"
b0xxxxxxxxxxxxxxxxxxxxx _"
0^"
b0 ]"
0\"
x["
xZ"
xY"
xX"
xW"
xV"
bx U"
bx T"
bx S"
bx R"
xQ"
xP"
1O"
bx N"
bx M"
b0 L"
1K"
bx J"
bx I"
bx H"
1G"
0F"
bx E"
bx D"
bx C"
xB"
xA"
bx @"
bx ?"
bx >"
bx ="
bx <"
b0 ;"
x:"
x9"
bx 8"
bx 7"
bx 6"
bx 5"
bx 4"
bx 3"
bx 2"
bx 1"
bx 0"
x/"
x."
bx -"
bx ,"
bx +"
bx *"
bx )"
bx ("
bx '"
bx &"
b0xxxxxxxxxxxxxxxxxxxxxxxxxxxxxxx %"
bx $"
bx #"
bx ""
bx !"
bx ~
bx }
bx |
bx {
bx z
bx y
bx x
b0 w
b0 v
bx u
bx t
b0 s
b0 r
bx q
bx p
bx o
bx n
bx m
bx l
bx k
bx j
bx i
bx h
bx g
bx f
b0xxxxxxxxxx e
0d
b0 c
b0 b
bx a
bx `
bx _
bx ^
bx ]
bx \
b0 [
bx Z
0Y
bx X
bx W
bx V
bx U
bx T
bx S
b0 R
bx Q
bx P
bx O
bx N
bx M
bx L
bx K
0J
0I
bx H
bx G
bx F
b0 E
b0 D
b0 C
1B
bx A
b0xxxxxxxx @
bx ?
bx >
bx =
bx <
bx ;
bx :
bx 9
bx 8
bx 7
bx 6
bx 5
bx 4
bx 3
bx 2
bx 1
bx 0
bx /
bx .
bx -
bx ,
bx +
bx *
bx )
bx (
b0xxxxxxxxxx '
b0xxxxxxxxxxxxxxxxxxxxxxxxxxxxxxx &
b0xxxxxxxxxxxxxxxxxxxxx %
0$
0#
0"
0!
$end
#5000
b0 !"
b0 G
b0 h
b0 P
b0 8"
b0 j"
b0 u"
0/"
0."
0g"
b0 K
b0 i
b0 x
b0 ~
b0 #"
b0 U
b0 n
b0 $"
b0 X
b0 q
b0 ""
b0 M
b0 j
0|"
0{"
b0 o"
b0 x"
b0 ("
b0 )"
b0 3"
b0 S"
b0 4"
b0 T"
0:"
09"
b0 z
b0 &
b0 %"
b0 W
b0 p
b0 }
b0 {
b0 /
b0 e"
b0 q"
b0 .
b0 b"
b0 y"
b0 z"
b0 ,
b0 f"
b0 (
b0 "#
b0 O
b0 h"
b0 +
b0 d"
b0 *
b0 c"
b0 Q
b0 l
b0 u
b0 D"
b0 E"
b0 ;
b0 m
b0 y
b0 <
b0 o
b0 |
b0 ?
b0 N
b0 k
b0 t
b0 @
b0 1
b0 0"
b0 2
b0 1"
b0 F
b0 ,"
b0 H
b0 Z
b0 ^
b0 3
b0 -"
b0 8
b0 C"
b0 S
b0 ="
b0 7
b0 2"
b0 H"
b0 R"
b0 4
b0 5"
b0 L
b0 <"
b0 5
b0 6"
b0 %
b0 _"
b0 T
b0 >"
b0 6
b0 7"
b1 g
b1 =
b0 f
b0 :
b1 a"
b1 -
b0 `"
b0 )
b1 $#
b1 A
b0 ##
b0 >
b1 '"
b1 9
b0 &"
b0 0
b1 J"
b1 @"
b0 I"
b0 ?"
b1 N"
b1 +"
b0 M"
b0 *"
1Q"
1B"
0P"
0A"
b1 s"
b1 n"
b0 r"
b0 m"
b1 w"
b1 l"
b0 v"
b0 k"
b100000010101 b
b100000010101xxxxxxxxxx '
b100000010101xxxxxxxxxx e
b100000010101 R
b100000010101 [
b0 `
b0 ]
b0 a
1d
1^"
1~"
1#
1!
1$
1"
#10000
0#
0!
#15000
1#
1!
#20000
0#
0!
#25000
1#
1!
#28000
0d
0^"
0~"
0$
0"
#30000
b10101 K
b10101 i
b10101 x
b10101 ~
b1 ""
b1 M
b1 j
b10 z
b10 W
b10 p
b10 }
b10101 {
bx !"
b0xxxxxxxxxx000000100001010100100 &
b0xxxxxxxxxx000000100001010100100 %"
bx G
bx h
b100000010101 ;
b100000010101 m
b100000010101 y
bx <
bx o
bx |
b0 g
b0 =
b100000010101xxxxxxxxxx f
b100000010101xxxxxxxxxx :
0#
0!
#35000
b1000001010000 b
b1000001010000 R
b1000001010000 [
b10 _
b10000010100000000000010 '
b10000010100000000000010 e
b10 V
b10 \
b1 `
b1 ]
b1 a
1#
1!
#40000
0V"
0W"
bx0x0x U"
b10101 ]"
b10101 E
b10101 ;"
b10101 L"
b1010000 K
b1010000 i
b1010000 x
b10000 ~
b11 #"
b11 U
b11 n
b11 $"
b11 X
b11 q
b0 ""
b0 M
b0 j
b10101 3"
b10101 S"
b10101 4"
b10101 T"
b100 z
b100 W
b100 p
b100 }
b1010000 {
b1010000 !"
b1010000110001000101000000011 &
b1010000110001000101000000011 %"
b1010000 G
b1010000 h
bx F
bx ,"
bx H
bx Z
bx ^
bx 3
bx -"
b10 S
b10 ="
b10 7
b10 2"
b10 H"
b10 R"
b10101 4
b10101 5"
b1010100100xxxxxxxxxx000010 %
b1010100100xxxxxxxxxx000010 _"
b1 L
b1 <"
b1 5
b1 6"
b1000001010000 ;
b1000001010000 m
b1000001010000 y
b10 <
b10 o
b10 |
b0 '"
b0 9
b0xxxxxxxxxx000000100001010100100 &"
b0xxxxxxxxxx000000100001010100100 0
b10000010100000000000010 f
b10000010100000000000010 :
0#
0!
#45000
b110000110000 b
b110000110000 R
b110000110000 [
b11 _
b1100001100000000000011 '
b1100001100000000000011 e
b11 V
b11 \
b10 `
b10 ]
b10 a
1#
1!
#50000
b0 ]"
b0 E
b0 ;"
b0 L"
b110000 K
b110000 i
b110000 x
b110000 ~
b0 #"
b0 U
b0 n
b0 $"
b0 X
b0 q
b11 ""
b11 M
b11 j
b110011 !"
b110011 G
b110011 h
b10101 o"
b10101 x"
b10101 P
b10101 8"
b10101 j"
b10101 u"
b11 z
b110011000000110011000001100 &
b110011000000110011000001100 %"
b11 W
b11 p
b11 }
b110000 {
b0 3"
b0 S"
b0 4"
b0 T"
b10 /
b10 e"
b10 q"
bx .
bx b"
bx y"
bx z"
b10101001 (
b10101001 "#
b1 O
b1 h"
b1 +
b1 d"
b10101 *
b10101 c"
b110000110000 ;
b110000110000 m
b110000110000 y
b11 <
b11 o
b11 |
b1010000 F
b1010000 ,"
b1010000 H
b1010000 Z
b1010000 ^
b1010000 3
b1010000 -"
b11 8
b11 C"
b100 S
b100 ="
b100 7
b100 2"
b100 H"
b100 R"
b1010000 4
b1010000 5"
b0 L
b0 <"
b0 5
b0 6"
b110001010000000100 %
b110001010000000100 _"
b11 T
b11 >"
b11 6
b11 7"
b1100001100000000000011 f
b1100001100000000000011 :
b1010000110001000101000000011 &"
b1010000110001000101000000011 0
b0 J"
b0 @"
b10 I"
b10 ?"
b0 N"
b0 +"
b10101 M"
b10101 *"
b0 a"
b0 -
b1010100100xxxxxxxxxx000010 `"
b1010100100xxxxxxxxxx000010 )
0#
0!
#55000
b1010001100000 b
b1010001100000 R
b1010001100000 [
b100 _
b10100011000000000000100 '
b10100011000000000000100 e
b100 V
b100 \
b11 `
b11 ]
b11 a
1#
1!
#60000
b110000 ]"
b110000 E
b110000 ;"
b110000 L"
0V"
0X"
0W"
0Y"
bx0000 U"
1g"
1|"
1{"
b10101 o"
b10101 x"
bx P
bx 8"
bx j"
bx u"
b110000 3"
b110000 S"
b110000 4"
b110000 T"
b1100000 K
b1100000 i
b1100000 x
b100000 ~
b11 #"
b11 U
b11 n
b11 $"
b11 X
b11 q
b0 ""
b0 M
b0 j
b10101 v
b10101 C
b10101 r
b10101 Q
b10101 l
b10101 u
b100 /
b100 e"
b100 q"
b1010000 .
b1010000 b"
b1010000 y"
b1010000 z"
b11 ,
b11 f"
bx000 (
bx000 "#
b0 O
b0 h"
b0 +
b0 d"
b0 *
b0 c"
b101 z
b101 W
b101 p
b101 }
b1100000 {
b1100000 !"
b10101000000000001100000110001010110000000011 &
b10101000000000001100000110001010110000000011 %"
b1100000 G
b1100000 h
b1 ?
b1 N
b1 k
b1 t
b10101 @
b110011 F
b110011 ,"
b110011 H
b110011 Z
b110011 ^
b110011 3
b110011 -"
b0 8
b0 C"
b11 S
b11 ="
b11 7
b11 2"
b11 H"
b11 R"
b110000 4
b110000 5"
b11 L
b11 <"
b11 5
b11 6"
b110000011000000110011000011 %
b110000011000000110011000011 _"
b0 T
b0 >"
b0 6
b0 7"
b1010001100000 ;
b1010001100000 m
b1010001100000 y
b100 <
b100 o
b100 |
b0 $#
b0 A
b10101001 ##
b10101001 >
b0 w"
b0 l"
b10101 v"
b10101 k"
b0 s"
b0 n"
b10 r"
b10 m"
b110001010000000100 `"
b110001010000000100 )
b1 N"
b1 +"
b0 M"
b0 *"
b100 I"
b100 ?"
b110011000000110011000001100 &"
b110011000000110011000001100 0
b10100011000000000000100 f
b10100011000000000000100 :
0#
0!
#65000
b1001010001100000 b
b1001010001100000 R
b1001010001100000 [
b101 _
b10010100011000000000000101 '
b10010100011000000000000101 e
b101 V
b101 \
b100 `
b100 ]
b100 a
1#
1!
#70000
b0 ]"
b0 E
b0 ;"
b0 L"
b110000 P
b110000 8"
b110000 j"
b110000 u"
0g"
b1 #"
b1 U
b1 n
b0 $"
b0 X
b0 q
b10 ""
b10 M
b10 j
b10101 ("
0|"
0{"
b100101 z
b10101000000000001100000001001010110000001001 &
b10101000000000001100000001001010110000001001 %"
b100101 W
b100101 p
b100101 }
b10101 D"
b10101 3"
b10101 S"
b0 4"
b0 T"
b11 /
b11 e"
b11 q"
b110011 .
b110011 b"
b110011 y"
b110011 z"
b0 ,
b0 f"
b110000011 (
b110000011 "#
b11 O
b11 h"
b11 +
b11 d"
b110000 *
b110000 c"
bx Q
bx l
bx u
b1001010001100000 ;
b1001010001100000 m
b1001010001100000 y
b101 <
b101 o
b101 |
b10101 1
b10101 0"
b1100000 F
b1100000 ,"
b1100000 H
b1100000 Z
b1100000 ^
b1100000 3
b1100000 -"
b11 8
b11 C"
b101 S
b101 ="
b101 7
b101 2"
b101 H"
b101 R"
b1100000 4
b1100000 5"
b0 L
b0 <"
b0 5
b0 6"
b110001100000000101 %
b110001100000000101 _"
b11 T
b11 >"
b11 6
b11 7"
b110000 o"
b110000 x"
b0 ?
b0 N
b0 k
b0 t
b0xxxxxxxx @
b10010100011000000000000101 f
b10010100011000000000000101 :
b10101000000000001100000110001010110000000011 &"
b10101000000000001100000110001010110000000011 0
b11 I"
b11 ?"
b0 N"
b0 +"
b110000 M"
b110000 *"
b110000011000000110011000011 `"
b110000011000000110011000011 )
b100 r"
b100 m"
b0x w"
b0x l"
bx v"
bx k"
b0x $#
b0x A
bx000 ##
bx000 >
0#
0!
#75000
b10001010000 b
b10001010000 R
b10001010000 [
b110 _
b100010100000000000110 '
b100010100000000000110 e
b110 V
b110 \
b101 `
b101 ]
b101 a
1#
1!
#80000
1g"
1|"
1{"
b110000 o"
b110000 x"
bx P
bx 8"
bx j"
bx u"
b1100000 3"
b1100000 S"
b1100000 4"
b1100000 T"
b1010000 K
b1010000 i
b1010000 x
b10000 ~
b100 ""
b100 M
b100 j
b1010000 !"
b1010000 G
b1010000 h
b110000 w
b110000 D
b110000 s
b110000 Q
b110000 l
b110000 u
b101 /
b101 e"
b101 q"
b1100000 .
b1100000 b"
b1100000 y"
b1100000 z"
b11 ,
b11 f"
bx000 (
bx000 "#
b0 O
b0 h"
b0 +
b0 d"
b0 *
b0 c"
b1 z
b10101001100000001010000000000010101000010001 &
b10101001100000001010000000000010101000010001 %"
b1 W
b1 p
b1 }
b1010000 {
b11 ?
b11 N
b11 k
b11 t
b110000 @
b0 8
b0 C"
b100101 S
b100101 ="
b100101 7
b100101 2"
b100101 H"
b100101 R"
b10 L
b10 <"
b10 5
b10 6"
b10010001100000100101 %
b10010001100000100101 _"
b1 T
b1 >"
b1 6
b1 7"
b10001010000 ;
b10001010000 m
b10001010000 y
b110 <
b110 o
b110 |
b0 $#
b0 A
b110000011 ##
b110000011 >
b0 w"
b0 l"
b110000 v"
b110000 k"
b11 r"
b11 m"
b110001100000000101 `"
b110001100000000101 )
b1 N"
b1 +"
b0 M"
b0 *"
b101 I"
b101 ?"
b10101000000000001100000001001010110000001001 &"
b10101000000000001100000001001010110000001001 0
b100010100000000000110 f
b100010100000000000110 :
0#
0!
#85000
b0 b
b0 R
b0 [
b111 _
b111 '
b111 e
b111 V
b111 \
b110 `
b110 ]
b110 a
1#
1!
#90000
0g"
b0 K
b0 i
b0 x
b0 ~
b0 #"
b0 U
b0 n
b0 ""
b0 M
b0 j
b111 !"
b111 G
b111 h
b110000 )"
0{"
b0 z
b10101001100000000000111000000000000000000000 &
b10101001100000000000111000000000000000000000 %"
b0 W
b0 p
b0 }
b0 {
b110000 E"
b1010000 3"
b1010000 S"
b1010000 4"
b1010000 T"
b100101 /
b100101 e"
b100101 q"
b1 ,
b1 f"
bx010 (
bx010 "#
b10 O
b10 h"
b10 +
b10 d"
bx Q
bx l
bx u
b0 ;
b0 m
b0 y
b111 <
b111 o
b111 |
b110000 2
b110000 1"
b1010000 F
b1010000 ,"
b1010000 H
b1010000 Z
b1010000 ^
b1010000 3
b1010000 -"
b1 S
b1 ="
b1 7
b1 2"
b1 H"
b1 R"
b1010000 4
b1010000 5"
b100010001010000000001 %
b100010001010000000001 _"
b100 L
b100 <"
b100 5
b100 6"
b0 o"
b0 x"
b0 ?
b0 N
b0 k
b0 t
b0xxxxxxxx @
b111 f
b111 :
b10101001100000001010000000000010101000010001 &"
b10101001100000001010000000000010101000010001 0
b100101 I"
b100101 ?"
b10010001100000100101 `"
b10010001100000100101 )
b101 r"
b101 m"
b0x w"
b0x l"
bx v"
bx k"
b0x $#
b0x A
bx000 ##
bx000 >
0#
0!
#95000
b1000 _
b1000 '
b1000 e
b1000 V
b1000 \
b111 `
b111 ]
b111 a
1#
1!
#100000
bx v
bx C
bx r
b1 /
b1 e"
b1 q"
b1010000 .
b1010000 b"
b1010000 y"
b1010000 z"
bx100 (
bx100 "#
b100 O
b100 h"
b100 +
b100 d"
b0 3"
b0 S"
b0 4"
b0 T"
b1000 !"
bx001100000000001000000000000000000000000 &
bx001100000000001000000000000000000000000 %"
b1000 G
b1000 h
b10 ?
b10 N
b10 k
b10 t
b111 F
b111 ,"
b111 H
b111 Z
b111 ^
b111 3
b111 -"
b0 S
b0 ="
b0 7
b0 2"
b0 H"
b0 R"
b0 4
b0 5"
b0 L
b0 <"
b0 5
b0 6"
b111000000 %
b111000000 _"
b0 T
b0 >"
b0 6
b0 7"
b1000 <
b1000 o
b1000 |
b0 $#
b0 A
bx010 ##
bx010 >
b100101 r"
b100101 m"
b100010001010000000001 `"
b100010001010000000001 )
b1 I"
b1 ?"
b10101001100000000000111000000000000000000000 &"
b10101001100000000000111000000000000000000000 0
b1000 f
b1000 :
0#
0!
#105000
b1001 _
b1001 '
b1001 e
b1001 V
b1001 \
b1000 `
b1000 ]
b1000 a
1#
1!
#110000
b0 P
b0 8"
b0 j"
b0 u"
bx ("
0|"
b1001 !"
b1001 G
b1001 h
bx D"
b0 /
b0 e"
b0 q"
b111 .
b111 b"
b111 y"
b111 z"
b0 ,
b0 f"
b0 (
b0 "#
b0 O
b0 h"
b0 +
b0 d"
bx w
bx0000001001000000000000000000000 &
bx0000001001000000000000000000000 %"
bx D
bx s
b1001 <
b1001 o
b1001 |
bx 1
bx 0"
b1000000000 %
b1000000000 _"
b1000 F
b1000 ,"
b1000 H
b1000 Z
b1000 ^
b1000 3
b1000 -"
b100 ?
b100 N
b100 k
b100 t
b1001 f
b1001 :
bx001100000000001000000000000000000000000 &"
bx001100000000001000000000000000000000000 0
b1 J"
b1 @"
b0 I"
b0 ?"
b111000000 `"
b111000000 )
b1 r"
b1 m"
bx100 ##
bx100 >
0#
0!
#115000
b1010 _
b1010 '
b1010 e
b1010 V
b1010 \
b1001 `
b1001 ]
b1001 a
1#
1!
#120000
bx )"
b0 Q
b0 l
b0 u
b1000 .
b1000 b"
b1000 y"
b1000 z"
bx E"
b1010 !"
bx0000001010000000000000000000000 &
bx0000001010000000000000000000000 %"
b1010 G
b1010 h
b0 ?
b0 N
b0 k
b0 t
b0 @
bx 2
bx 1"
b1001000000 %
b1001000000 _"
b1001 F
b1001 ,"
b1001 H
b1001 Z
b1001 ^
b1001 3
b1001 -"
b1010 <
b1010 o
b1010 |
b1 $#
b1 A
b0 ##
b0 >
b1 w"
b1 l"
b0 v"
b0 k"
b1 s"
b1 n"
b0 r"
b0 m"
b1000000000 `"
b1000000000 )
bx0000001001000000000000000000000 &"
bx0000001001000000000000000000000 0
b1010 f
b1010 :
0#
0!
#125000
b1011 _
b1011 '
b1011 e
b1011 V
b1011 \
b1010 `
b1010 ]
b1010 a
1#
1!
#130000
b1011 !"
bx0000001011000000000000000000000 &
bx0000001011000000000000000000000 %"
b1011 G
b1011 h
b1001 .
b1001 b"
b1001 y"
b1001 z"
b1011 <
b1011 o
b1011 |
b1010000000 %
b1010000000 _"
b1010 F
b1010 ,"
b1010 H
b1010 Z
b1010 ^
b1010 3
b1010 -"
b1011 f
b1011 :
bx0000001010000000000000000000000 &"
bx0000001010000000000000000000000 0
b1001000000 `"
b1001000000 )
0#
0!
#135000
b1100 _
b1100 '
b1100 e
b1100 V
b1100 \
b1011 `
b1011 ]
b1011 a
1#
1!
#140000
b1010 .
b1010 b"
b1010 y"
b1010 z"
b1100 !"
bx0000001100000000000000000000000 &
bx0000001100000000000000000000000 %"
b1100 G
b1100 h
b1011000000 %
b1011000000 _"
b1011 F
b1011 ,"
b1011 H
b1011 Z
b1011 ^
b1011 3
b1011 -"
b1100 <
b1100 o
b1100 |
b1010000000 `"
b1010000000 )
bx0000001011000000000000000000000 &"
bx0000001011000000000000000000000 0
b1100 f
b1100 :
0#
0!
#145000
b1101 _
b1101 '
b1101 e
b1101 V
b1101 \
b1100 `
b1100 ]
b1100 a
1#
1!
#150000
b1101 !"
bx0000001101000000000000000000000 &
bx0000001101000000000000000000000 %"
b1101 G
b1101 h
b1011 .
b1011 b"
b1011 y"
b1011 z"
b1101 <
b1101 o
b1101 |
b1100000000 %
b1100000000 _"
b1100 F
b1100 ,"
b1100 H
b1100 Z
b1100 ^
b1100 3
b1100 -"
b1101 f
b1101 :
bx0000001100000000000000000000000 &"
bx0000001100000000000000000000000 0
b1011000000 `"
b1011000000 )
0#
0!
#155000
b1110 _
b1110 '
b1110 e
b1110 V
b1110 \
b1101 `
b1101 ]
b1101 a
1#
1!
#160000
b1100 .
b1100 b"
b1100 y"
b1100 z"
b1110 !"
bx0000001110000000000000000000000 &
bx0000001110000000000000000000000 %"
b1110 G
b1110 h
b1101000000 %
b1101000000 _"
b1101 F
b1101 ,"
b1101 H
b1101 Z
b1101 ^
b1101 3
b1101 -"
b1110 <
b1110 o
b1110 |
b1100000000 `"
b1100000000 )
bx0000001101000000000000000000000 &"
bx0000001101000000000000000000000 0
b1110 f
b1110 :
0#
0!
#165000
b1111 _
b1111 '
b1111 e
b1111 V
b1111 \
b1110 `
b1110 ]
b1110 a
1#
1!
