tarea4/pruebaPIPE.vcd
$date
	Mon Jun 29 03:43:57 2015
$end
$version
	Icarus Verilog
$end
$timescale
	1ps
$end
$scope module tester $end
$var wire 1 ! clk $end
$var wire 1 " reset $end
$scope module test $end
$var reg 1 # clk $end
$var reg 1 $ reset $end
$upscope $end
$scope module pegado $end
$var wire 1 ! clk $end
$var wire 31 % inputReg_EX_MEM [30:0] $end
$var wire 47 & inputReg_ID_EX [46:0] $end
$var wire 26 ' inputReg_IF_ID [25:0] $end
$var wire 11 ( inputReg_MEM_WB [10:0] $end
$var wire 31 ) outReg_EX_MEM [30:0] $end
$var wire 8 * outReg_EX_MEM_AluResult_EX [7:0] $end
$var wire 3 + outReg_EX_MEM_ControlAcum_EX [2:0] $end
$var wire 2 , outReg_EX_MEM_MemControl_EX [1:0] $end
$var wire 31 - outReg_EX_MEM_bar [30:0] $end
$var wire 10 . outReg_EX_MEM_wBrDir_EX [9:0] $end
$var wire 47 / outReg_ID_EX [46:0] $end
$var wire 8 0 outReg_ID_EX_AcumA_ID [7:0] $end
$var wire 8 1 outReg_ID_EX_AcumB_ID [7:0] $end
$var wire 10 2 outReg_ID_EX_BrDir_ID [9:0] $end
$var wire 8 3 outReg_ID_EX_Constant_ID [7:0] $end
$var wire 3 4 outReg_ID_EX_ControlAcum_ID [2:0] $end
$var wire 2 5 outReg_ID_EX_MemControl_ID [1:0] $end
$var wire 6 6 outReg_ID_EX_Operation_ID [5:0] $end
$var wire 2 7 outReg_ID_EX_OutSelMux_ID [1:0] $end
$var wire 47 8 outReg_ID_EX_bar [46:0] $end
$var wire 26 9 outReg_IF_ID [25:0] $end
$var wire 16 : outReg_IF_ID_FetchedInstr [15:0] $end
$var wire 10 ; outReg_IF_ID_NewPC [9:0] $end
$var wire 26 < outReg_IF_ID_bar [25:0] $end
$var wire 11 = outReg_MEM_WB [10:0] $end
$var wire 3 > outReg_MEM_WB_ControlAcum_MEM [2:0] $end
$var wire 16 ? outReg_MEM_WB_DataToWB_MEM [15:0] $end
$var wire 11 @ outReg_MEM_WB_bar [10:0] $end
$var wire 1 " reset $end
$var wire 8 A wAcumA_ID [7:0] $end
$var wire 8 B wAcumB_ID [7:0] $end
$var wire 8 C wAluResult_EX [7:0] $end
$var wire 10 D wBrDir_EX [9:0] $end
$var wire 10 E wBrDir_ID [9:0] $end
$var wire 10 F wBrDir_IF [9:0] $end
$var wire 1 G wBrTaken_EX $end
$var wire 1 H wBrTaken_IF $end
$var wire 8 I wConstant_ID [7:0] $end
$var wire 3 J wControlAcum_EX [2:0] $end
$var wire 3 K wControlAcum_ID [2:0] $end
$var wire 3 L wControlAcum_ID_WB [2:0] $end
$var wire 3 M wControlAcum_MEM [2:0] $end
$var wire 8 N wDataToWB_MEM [7:0] $end
$var wire 8 O wData_WB [7:0] $end
$var wire 16 P wFetchedInst_IF [15:0] $end
$var wire 2 Q wMemControl_EX [1:0] $end
$var wire 2 R wMemControl_ID [1:0] $end
$var wire 10 S wNewPC_IF [9:0] $end
$var wire 6 T wOperation_ID [5:0] $end
$var wire 2 U wOutSelMux_ID [1:0] $end
$scope module etapa1 $end
$var wire 1 ! clk $end
$var wire 10 V iBr_dir [9:0] $end
$var wire 1 H iBr_taken $end
$var wire 16 W oFetchedInst [15:0] $end
$var wire 10 X oNew_pc [9:0] $end
$var wire 1 " reset $end
$var wire 10 Y wPc_pointer [9:0] $end
$scope module pcIF $end
$var wire 1 ! clk $end
$var wire 10 Z iBr_dir [9:0] $end
$var wire 1 H iBr_taken $end
$var wire 1 " reset $end
$var reg 10 [ oNew_pc [9:0] $end
$var reg 10 \ oPc_pointer [9:0] $end
$upscope $end
$scope module instructMem $end
$var wire 10 ] iDir [9:0] $end
$var reg 16 ^ oInstruc [15:0] $end
$var reg 10 _ rClear [9:0] $end
$upscope $end
$upscope $end
$scope module registro_IF_ID $end
$var wire 1 ! clk $end
$var wire 1 ` clr $end
$var wire 1 a enable $end
$var wire 26 b in [25:0] $end
$var reg 26 c out [25:0] $end
$var reg 26 d out_bar [25:0] $end
$upscope $end
$scope module etapa2 $end
$var wire 10 e branchDir [9:0] $end
$var wire 8 f constant [7:0] $end
$var wire 3 g controlAcum_ID [2:0] $end
$var wire 3 h controlAcum_WB [2:0] $end
$var wire 8 i data [7:0] $end
$var wire 16 j instr [15:0] $end
$var wire 2 k memControl [1:0] $end
$var wire 10 l newPC [9:0] $end
$var wire 6 m operation [5:0] $end
$var wire 2 n outSelMux [1:0] $end
$var wire 8 o salidaAcumA [7:0] $end
$var wire 8 p salidaAcumB [7:0] $end
$scope module acumuladores $end
$var wire 3 q control [2:0] $end
$var wire 8 r data [7:0] $end
$var reg 8 s salidaAcumA [7:0] $end
$var reg 8 t salidaAcumB [7:0] $end
$upscope $end
$scope module decodificador $end
$var wire 8 u constant [7:0] $end
$var wire 16 v instr [15:0] $end
$var wire 6 w instrDecod [5:0] $end
$var wire 10 x instrInfo [9:0] $end
$var wire 10 y newPC [9:0] $end
$var wire 6 z operation [5:0] $end
$var wire 6 { saltoRel [5:0] $end
$var reg 10 | branchDir [9:0] $end
$var reg 3 } controlAcum [2:0] $end
$var reg 2 ~ memControl [1:0] $end
$var reg 2 !" outSelMux [1:0] $end
$upscope $end
$upscope $end
$scope module registro_ID_EX $end
$var wire 1 ! clk $end
$var wire 1 " clr $end
$var wire 1 "" enable $end
$var wire 47 #" in [46:0] $end
$var reg 47 $" out [46:0] $end
$var reg 47 %" out_bar [46:0] $end
$upscope $end
$scope module etapa3 $end
$var wire 10 &" branchDir_EX [9:0] $end
$var wire 10 '" branchDir_ID [9:0] $end
$var wire 1 G branchTaken $end
$var wire 8 (" iAcumA [7:0] $end
$var wire 8 )" iAcumB [7:0] $end
$var wire 6 *" iAluInstSel [5:0] $end
$var wire 8 +" iAluOper1 [7:0] $end
$var wire 8 ," iAluOper2 [7:0] $end
$var wire 8 -" iConst [7:0] $end
$var wire 3 ." iControlAcum_ID [2:0] $end
$var wire 2 /" iMemControl_ID [1:0] $end
$var wire 8 0" oAluData [7:0] $end
$var wire 3 1" oControlAcum_EX [2:0] $end
$var wire 2 2" oMemControl_EX [1:0] $end
$var wire 2 3" outSelMuxExe [1:0] $end
$scope module aluEx $end
$var wire 6 4" iAluInstSel [5:0] $end
$var wire 8 5" iAluOper1 [7:0] $end
$var wire 8 6" iAluOper2 [7:0] $end
$var wire 6 7" sReg [5:0] $end
$var reg 1 8" BAN $end
$var reg 1 9" BAZ $end
$var reg 1 :" BBN $end
$var reg 1 ;" BBZ $end
$var reg 1 <" BCA $end
$var reg 1 =" BCB $end
$var reg 1 >" branchTaken $end
$var reg 8 ?" oAluData [7:0] $end
$upscope $end
$upscope $end
$scope module registro_EX_MEM $end
$var wire 1 ! clk $end
$var wire 1 @" clr $end
$var wire 1 A" enable $end
$var wire 31 B" in [30:0] $end
$var reg 31 C" out [30:0] $end
$var reg 31 D" out_bar [30:0] $end
$upscope $end
$scope module etapa4 $end
$var wire 10 E" iAddresReadNWrite [9:0] $end
$var wire 8 F" iAluDataEX [7:0] $end
$var wire 3 G" iControlAcum_EX [2:0] $end
$var wire 2 H" iOutMemSelect [1:0] $end
$var wire 1 ! memClk $end
$var wire 3 I" oControlAcum_MEM [2:0] $end
$var wire 8 J" oDataRamRead [7:0] $end
$var wire 8 K" oDataToWB [7:0] $end
$scope module DATA_MEM $end
$var wire 1 ! clk $end
$var wire 8 L" iDataMemIn [7:0] $end
$var wire 10 M" iReadDataAddress [9:0] $end
$var wire 10 N" iWriteDataAddress [9:0] $end
$var wire 1 O" iWriteDataEnable $end
$var wire 1 P" memEnable $end
$var reg 8 Q" oDataMemOut [7:0] $end
$upscope $end
$upscope $end
$scope module registro_MEM_WB $end
$var wire 1 ! clk $end
$var wire 1 R" clr $end
$var wire 1 S" enable $end
$var wire 11 T" in [10:0] $end
$var reg 11 U" out [10:0] $end
$var reg 11 V" out_bar [10:0] $end
$upscope $end
$upscope $end
$upscope $end
$enddefinitions $end
#0
$dumpvars
bx V"
bx U"
bx T"
1S"
0R"
bx Q"
xP"
xO"
bx N"
bx M"
bx L"
bx K"
bx J"
bx I"
bx H"
bx G"
bx F"
bx E"
bx D"
bx C"
b0xxxxxxxxxxxxxxx B"
1A"
0@"
b0 ?"
0>"
x="
x<"
x;"
x:"
x9"
x8"
bx 7"
bx 6"
bx 5"
bx 4"
bx 3"
bx 2"
bx 1"
b0 0"
bx /"
bx ."
bx -"
bx ,"
bx +"
bx *"
bx )"
bx ("
bx '"
bx &"
bx %"
bx $"
b0xxxxxxxxxxxxxxxxxxxxxxxxxxxxxxx #"
1""
bx !"
bx ~
bx }
bx |
bx {
bx z
bx y
bx x
bx w
bx v
bx u
b0 t
b0 s
bx r
bx q
b0 p
b0 o
bx n
bx m
bx l
bx k
bx j
bx i
bx h
bx g
bx f
bx e
bx d
bx c
b0xxxxxxxxxx b
1a
0`
b0 _
b0 ^
bx ]
bx \
bx [
bx Z
bx Y
bx X
b0 W
bx V
bx U
bx T
bx S
bx R
bx Q
b0 P
bx O
bx N
bx M
bx L
bx K
bx J
bx I
0H
0G
bx F
bx E
bx D
b0 C
b0 B
b0 A
bx @
b0xxxxxxxx ?
bx >
bx =
bx <
bx ;
bx :
bx 9
bx 8
bx 7
bx 6
bx 5
bx 4
bx 3
bx 2
bx 1
bx 0
bx /
bx .
bx -
bx ,
bx +
bx *
bx )
bx (
b0xxxxxxxxxx '
b0xxxxxxxxxxxxxxxxxxxxxxxxxxxxxxx &
b0xxxxxxxxxxxxxxx %
0$
0#
0"
0!
$end
#5000
b0 |
b0 E
b0 e
b0 N
b0 K"
b0 I
b0 f
b0 u
b0 {
b0 ~
b0 R
b0 k
b0 !"
b0 U
b0 n
b0 }
b0 K
b0 g
0P"
0O"
b0 w
b0 &
b0 #"
b0 T
b0 m
b0 z
b0 x
b0 .
b0 E"
b0 M"
b0 N"
b0 ,
b0 H"
b0 (
b0 T"
b0 M
b0 I"
b0 +
b0 G"
b0 *
b0 F"
b0 L"
b0 O
b0 i
b0 r
b0 +"
b0 5"
b0 ,"
b0 6"
b0 :
b0 j
b0 v
b0 ;
b0 l
b0 y
b0 >
b0 L
b0 h
b0 q
b0 ?
b0 0
b0 ("
b0 1
b0 )"
b0 D
b0 &"
b0 F
b0 V
b0 Z
b0 2
b0 '"
b0 7
b0 3"
b0 6
b0 *"
b0 4"
b0 3
b0 -"
b0 J
b0 1"
b0 4
b0 ."
b0 %
b0 B"
b0 Q
b0 2"
b0 5
b0 /"
b1 d
b1 <
b0 c
b0 9
b1 D"
b1 -
b0 C"
b0 )
b1 V"
b1 @
b0 U"
b0 =
b1 %"
b1 8
b0 $"
b0 /
b100000000111 ^
b100000000111 P
b100000000111 W
b1 [
b1000000001110000000001 '
b1000000001110000000001 b
b1 S
b1 X
b0 \
b0 Y
b0 ]
1`
1@"
1R"
1#
1!
1$
1"
#10000
0#
0!
#15000
1#
1!
#20000
0#
0!
#25000
1#
1!
#28000
0`
0@"
0R"
0$
0"
#30000
b111 I
b111 f
b111 u
b111 {
b1 }
b1 K
b1 g
b10 w
b10 T
b10 m
b10 z
b111 x
b1000 |
b1000000000100000011100100 &
b1000000000100000011100100 #"
b1000 E
b1000 e
b100000000111 :
b100000000111 j
b100000000111 v
b1 ;
b1 l
b1 y
b0 d
b0 <
b1000000001110000000001 c
b1000000001110000000001 9
0#
0!
#35000
b110000000111 ^
b110000000111 P
b110000000111 W
b10 [
b1100000001110000000010 '
b1100000001110000000010 b
b10 S
b10 X
b1 \
b1 Y
b1 ]
1#
1!
#40000
08"
09"
bx0x0x 7"
b111 ?"
b111 C
b111 0"
b11 }
b11 K
b11 g
b111 +"
b111 5"
b111 ,"
b111 6"
b11 w
b11 T
b11 m
b11 z
b1001 |
b1001000000110000011101100 &
b1001000000110000011101100 #"
b1001 E
b1001 e
b1000 D
b1000 &"
b1000 F
b1000 V
b1000 Z
b1000 2
b1000 '"
b10 6
b10 *"
b10 4"
b111 3
b111 -"
b111001000000001000 %
b111001000000001000 B"
b1 J
b1 1"
b1 4
b1 ."
b110000000111 :
b110000000111 j
b110000000111 v
b10 ;
b10 l
b10 y
b0 %"
b0 8
b1000000000100000011100100 $"
b1000000000100000011100100 /
b1100000001110000000010 c
b1100000001110000000010 9
0#
0!
#45000
b0 ^
b0 P
b0 W
b11 [
b11 '
b11 b
b11 S
b11 X
b10 \
b10 Y
b10 ]
1#
1!
#50000
x8"
0:"
x9"
0;"
bx0x0 7"
b0 I
b0 f
b0 u
b0 {
b0 }
b0 K
b0 g
b111 N
b111 K"
b0 w
b0 T
b0 m
b0 z
b0 x
b11 |
b11000000000000000000000 &
b11000000000000000000000 #"
b11 E
b11 e
b1000 .
b1000 E"
b1000 M"
b1000 N"
b111001 (
b111001 T"
b1 M
b1 I"
b1 +
b1 G"
b111 *
b111 F"
b111 L"
b0 :
b0 j
b0 v
b11 ;
b11 l
b11 y
b1001 D
b1001 &"
b1001 F
b1001 V
b1001 Z
b1001 2
b1001 '"
b11 6
b11 *"
b11 4"
b111011000000001001 %
b111011000000001001 B"
b11 J
b11 1"
b11 4
b11 ."
b11 c
b11 9
b1001000000110000011101100 $"
b1001000000110000011101100 /
b0 D"
b0 -
b111001000000001000 C"
b111001000000001000 )
0#
0!
#55000
b100 [
b100 '
b100 b
b100 S
b100 X
b11 \
b11 Y
b11 ]
1#
1!
#60000
b0 ?"
b0 C
b0 0"
b111 s
b111 A
b111 o
b111 O
b111 i
b111 r
b1001 .
b1001 E"
b1001 M"
b1001 N"
b111011 (
b111011 T"
b11 M
b11 I"
b11 +
b11 G"
b0 +"
b0 5"
b0 ,"
b0 6"
b100 |
b111000000000000000100000000000000000000000 &
b111000000000000000100000000000000000000000 #"
b100 E
b100 e
b1 >
b1 L
b1 h
b1 q
b111 ?
b11 D
b11 &"
b11 F
b11 V
b11 Z
b11 2
b11 '"
b0 6
b0 *"
b0 4"
b0 3
b0 -"
b11 %
b11 B"
b0 J
b0 1"
b0 4
b0 ."
b100 ;
b100 l
b100 y
b0 V"
b0 @
b111001 U"
b111001 =
b111011000000001001 C"
b111011000000001001 )
b11000000000000000000000 $"
b11000000000000000000000 /
b100 c
b100 9
0#
0!
#65000
b10110000000000 ^
b10110000000000 P
b10110000000000 W
b101 [
b101100000000000000000101 '
b101100000000000000000101 b
b101 S
b101 X
b100 \
b100 Y
b100 ]
1#
1!
#70000
b11 !"
b11 U
b11 n
b100 }
b100 K
b100 g
b0 N
b0 K"
b1011 w
b1011 T
b1011 m
b1011 z
b101 |
b101 E
b101 e
b11 .
b11 E"
b11 M"
b11 N"
b0 (
b0 T"
b0 M
b0 I"
b0 +
b0 G"
b0 *
b0 F"
b0 L"
b111 t
b111000001110000000101110010110000000010000 &
b111000001110000000101110010110000000010000 #"
b111 B
b111 p
b10110000000000 :
b10110000000000 j
b10110000000000 v
b101 ;
b101 l
b101 y
b111 0
b111 ("
b100 %
b100 B"
b100 D
b100 &"
b100 F
b100 V
b100 Z
b100 2
b100 '"
b11 >
b11 L
b11 h
b11 q
b101100000000000000000101 c
b101100000000000000000101 9
b111000000000000000100000000000000000000000 $"
b111000000000000000100000000000000000000000 /
b11 C"
b11 )
b111011 U"
b111011 =
0#
0!
#75000
b111110000110000 ^
b111110000110000 P
b111110000110000 W
b110 [
b1111100001100000000000110 '
b1111100001100000000000110 b
b110 S
b110 X
b101 \
b101 Y
b101 ]
1#
1!
#80000
1;"
0="
bx0x1x0 7"
b111 +"
b111 5"
b111 ,"
b111 6"
b110000 I
b110000 f
b110000 u
b110000 {
b0 !"
b0 U
b0 n
b0 }
b0 K
b0 g
b0 O
b0 i
b0 r
b100 .
b100 E"
b100 M"
b100 N"
b11111 w
b11111 T
b11111 m
b11111 z
b110000 x
b110110 |
b111000001110000110110000111110011000000000 &
b111000001110000110110000111110011000000000 #"
b110110 E
b110110 e
b0 >
b0 L
b0 h
b0 q
b0 ?
b111 1
b111 )"
b101 D
b101 &"
b101 F
b101 V
b101 Z
b101 2
b101 '"
b11 7
b11 3"
b1011 6
b1011 *"
b1011 4"
b100000000000101 %
b100000000000101 B"
b100 J
b100 1"
b100 4
b100 ."
b111110000110000 :
b111110000110000 j
b111110000110000 v
b110 ;
b110 l
b110 y
b1 V"
b1 @
b0 U"
b0 =
b100 C"
b100 )
b111000001110000000101110010110000000010000 $"
b111000001110000000101110010110000000010000 /
b1111100001100000000000110 c
b1111100001100000000000110 9
0#
0!
#85000
b100001100000 ^
b100001100000 P
b100001100000 W
b111 [
b1000011000000000000111 '
b1000011000000000000111 b
b111 S
b111 X
b110 \
b110 Y
b110 ]
1#
1!
#90000
b1 D"
b1 -
b1 d
b1 <
1R"
1@"
1`
1>"
1G
1H
b0 I
b0 f
b0 u
b0 {
b0 }
b0 K
b0 g
b110000 +"
b110000 5"
b110000 ,"
b110000 6"
b0 w
b0 T
b0 m
b0 z
b0 x
b0 |
b111000001110000000000000000000000000000000 &
b111000001110000000000000000000000000000000 #"
b0 E
b0 e
b0 .
b0 E"
b0 M"
b0 N"
b0 (
b0 T"
b0 M
b0 I"
b0 +
b0 G"
b0 :
b0 j
b0 v
b0 ;
b0 l
b0 y
b110110 D
b110110 &"
b110110 F
b110110 V
b110110 Z
b110110 2
b110110 '"
b0 7
b0 3"
b11111 6
b11111 *"
b11111 4"
b110000 3
b110000 -"
b110110 %
b110110 B"
b0 J
b0 1"
b0 4
b0 ."
b0 c
b0 9
b111000001110000110110000111110011000000000 $"
b111000001110000110110000111110011000000000 /
b0 C"
b0 )
0#
0!
#95000
b0 ^
b0 P
b0 W
b110111 [
b110111 '
b110111 b
b110111 S
b110111 X
b110110 \
b110110 Y
b110110 ]
1#
1!
#100000
0R"
0@"
0`
0>"
0G
0H
b0 +"
b0 5"
b0 ,"
b0 6"
b0 %
b0 B"
b0 D
b0 &"
b0 F
b0 V
b0 Z
b0 2
b0 '"
b0 6
b0 *"
b0 4"
b0 3
b0 -"
b111000001110000000000000000000000000000000 $"
b111000001110000000000000000000000000000000 /
0#
0!
#105000
b110000100101 ^
b110000100101 P
b110000100101 W
b111000 [
b1100001001010000111000 '
b1100001001010000111000 b
b111000 S
b111000 X
b110111 \
b110111 Y
b110111 ]
1#
1!
#110000
b100101 I
b100101 f
b100101 u
b100101 {
b11 }
b11 K
b11 g
b11 w
b11 T
b11 m
b11 z
b100101 x
b1011101 |
b111000001110001011101000000110010010101100 &
b111000001110001011101000000110010010101100 #"
b1011101 E
b1011101 e
b110000100101 :
b110000100101 j
b110000100101 v
b111000 ;
b111000 l
b111000 y
b0 d
b0 <
b1100001001010000111000 c
b1100001001010000111000 9
0#
0!
#115000
b0 ^
b0 P
b0 W
b111001 [
b111001 '
b111001 b
b111001 S
b111001 X
b111000 \
b111000 Y
b111000 ]
1#
1!
#120000
08"
19"
0;"
bx01000 7"
b100101 ?"
b100101 C
b100101 0"
b0 I
b0 f
b0 u
b0 {
b0 }
b0 K
b0 g
b100101 +"
b100101 5"
b100101 ,"
b100101 6"
b0 w
b0 T
b0 m
b0 z
b0 x
b111001 |
b111000001110000111001000000000000000000000 &
b111000001110000111001000000000000000000000 #"
b111001 E
b111001 e
b1011101 D
b1011101 &"
b1011101 F
b1011101 V
b1011101 Z
b1011101 2
b1011101 '"
b11 6
b11 *"
b11 4"
b100101 3
b100101 -"
b100101011000001011101 %
b100101011000001011101 B"
b11 J
b11 1"
b11 4
b11 ."
b0 :
b0 j
b0 v
b111001 ;
b111001 l
b111001 y
b111000001110001011101000000110010010101100 $"
b111000001110001011101000000110010010101100 /
b111001 c
b111001 9
0#
0!
#125000
b111010 [
b111010 '
b111010 b
b111010 S
b111010 X
b111001 \
b111001 Y
b111001 ]
1#
1!
#130000
b0 ?"
b0 C
b0 0"
b100101 N
b100101 K"
b111010 |
b111000001110000111010000000000000000000000 &
b111000001110000111010000000000000000000000 #"
b111010 E
b111010 e
b0 +"
b0 5"
b0 ,"
b0 6"
b1011101 .
b1011101 E"
b1011101 M"
b1011101 N"
b100101011 (
b100101011 T"
b11 M
b11 I"
b11 +
b11 G"
b100101 *
b100101 F"
b100101 L"
b111010 ;
b111010 l
b111010 y
b111001 D
b111001 &"
b111001 F
b111001 V
b111001 Z
b111001 2
b111001 '"
b0 6
b0 *"
b0 4"
b0 3
b0 -"
b111001 %
b111001 B"
b0 J
b0 1"
b0 4
b0 ."
b111010 c
b111010 9
b111000001110000111001000000000000000000000 $"
b111000001110000111001000000000000000000000 /
b0 D"
b0 -
b100101011000001011101 C"
b100101011000001011101 )
0#
0!
#135000
b111011 [
b111011 '
b111011 b
b111011 S
b111011 X
b111010 \
b111010 Y
b111010 ]
1#
1!
#140000
b0 N
b0 K"
b100101 t
b100101 B
b100101 p
b100101 O
b100101 i
b100101 r
b111001 .
b111001 E"
b111001 M"
b111001 N"
b0 (
b0 T"
b0 M
b0 I"
b0 +
b0 G"
b0 *
b0 F"
b0 L"
b111011 |
b111001001010000111011000000000000000000000 &
b111001001010000111011000000000000000000000 #"
b111011 E
b111011 e
b11 >
b11 L
b11 h
b11 q
b100101 ?
b111010 %
b111010 B"
b111010 D
b111010 &"
b111010 F
b111010 V
b111010 Z
b111010 2
b111010 '"
b111011 ;
b111011 l
b111011 y
b0 V"
b0 @
b100101011 U"
b100101011 =
b111001 C"
b111001 )
b111000001110000111010000000000000000000000 $"
b111000001110000111010000000000000000000000 /
b111011 c
b111011 9
0#
0!
#145000
b111100 [
b111100 '
b111100 b
b111100 S
b111100 X
b111011 \
b111011 Y
b111011 ]
1#
1!
#150000
b111100 |
b111001001010000111100000000000000000000000 &
b111001001010000111100000000000000000000000 #"
b111100 E
b111100 e
b111010 .
b111010 E"
b111010 M"
b111010 N"
b0 O
b0 i
b0 r
b111100 ;
b111100 l
b111100 y
b100101 1
b100101 )"
b111011 %
b111011 B"
b111011 D
b111011 &"
b111011 F
b111011 V
b111011 Z
b111011 2
b111011 '"
b0 >
b0 L
b0 h
b0 q
b0 ?
b111100 c
b111100 9
b111001001010000111011000000000000000000000 $"
b111001001010000111011000000000000000000000 /
b111010 C"
b111010 )
b1 V"
b1 @
b0 U"
b0 =
0#
0!
#155000
b111101 [
b111101 '
b111101 b
b111101 S
b111101 X
b111100 \
b111100 Y
b111100 ]
1#
1!
#160000
b111011 .
b111011 E"
b111011 M"
b111011 N"
b111101 |
b111001001010000111101000000000000000000000 &
b111001001010000111101000000000000000000000 #"
b111101 E
b111101 e
b111100 %
b111100 B"
b111100 D
b111100 &"
b111100 F
b111100 V
b111100 Z
b111100 2
b111100 '"
b111101 ;
b111101 l
b111101 y
b111011 C"
b111011 )
b111001001010000111100000000000000000000000 $"
b111001001010000111100000000000000000000000 /
b111101 c
b111101 9
0#
0!
#165000
b111110 [
b111110 '
b111110 b
b111110 S
b111110 X
b111101 \
b111101 Y
b111101 ]
1#
1!
#170000
b111110 |
b111001001010000111110000000000000000000000 &
b111001001010000111110000000000000000000000 #"
b111110 E
b111110 e
b111100 .
b111100 E"
b111100 M"
b111100 N"
b111110 ;
b111110 l
b111110 y
b111101 %
b111101 B"
b111101 D
b111101 &"
b111101 F
b111101 V
b111101 Z
b111101 2
b111101 '"
b111110 c
b111110 9
b111001001010000111101000000000000000000000 $"
b111001001010000111101000000000000000000000 /
b111100 C"
b111100 )
0#
0!
#175000
b111111 [
b111111 '
b111111 b
b111111 S
b111111 X
b111110 \
b111110 Y
b111110 ]
1#
1!
#180000
b111101 .
b111101 E"
b111101 M"
b111101 N"
b111111 |
b111001001010000111111000000000000000000000 &
b111001001010000111111000000000000000000000 #"
b111111 E
b111111 e
b111110 %
b111110 B"
b111110 D
b111110 &"
b111110 F
b111110 V
b111110 Z
b111110 2
b111110 '"
b111111 ;
b111111 l
b111111 y
b111101 C"
b111101 )
b111001001010000111110000000000000000000000 $"
b111001001010000111110000000000000000000000 /
b111111 c
b111111 9
0#
0!
#185000
b1000000 [
b1000000 '
b1000000 b
b1000000 S
b1000000 X
b111111 \
b111111 Y
b111111 ]
1#
1!
#190000
b1000000 |
b111001001010001000000000000000000000000000 &
b111001001010001000000000000000000000000000 #"
b1000000 E
b1000000 e
b111110 .
b111110 E"
b111110 M"
b111110 N"
b1000000 ;
b1000000 l
b1000000 y
b111111 %
b111111 B"
b111111 D
b111111 &"
b111111 F
b111111 V
b111111 Z
b111111 2
b111111 '"
b1000000 c
b1000000 9
b111001001010000111111000000000000000000000 $"
b111001001010000111111000000000000000000000 /
b111110 C"
b111110 )
0#
0!
#195000
b1000001 [
b1000001 '
b1000001 b
b1000001 S
b1000001 X
b1000000 \
b1000000 Y
b1000000 ]
1#
1!
