tarea4/pruebaPIPE.vcd
$date
	Mon Jun 29 00:20:55 2015
$end
$version
	Icarus Verilog
$end
$timescale
	1ps
$end
$scope module tester $end
$var wire 1 ! clk $end
$var wire 1 " reset $end
$scope module test $end
$var reg 1 # clk $end
$var reg 1 $ reset $end
$upscope $end
$scope module pegado $end
$var wire 1 ! clk $end
$var wire 31 % inputReg_EX_MEM [30:0] $end
$var wire 47 & inputReg_ID_EX [46:0] $end
$var wire 26 ' inputReg_IF_ID [25:0] $end
$var wire 11 ( inputReg_MEM_WB [10:0] $end
$var wire 31 ) outReg_EX_MEM [30:0] $end
$var wire 8 * outReg_EX_MEM_AluResult_EX [7:0] $end
$var wire 3 + outReg_EX_MEM_ControlAcum_EX [2:0] $end
$var wire 2 , outReg_EX_MEM_MemControl_EX [1:0] $end
$var wire 31 - outReg_EX_MEM_bar [30:0] $end
$var wire 10 . outReg_EX_MEM_wBrDir_EX [9:0] $end
$var wire 47 / outReg_ID_EX [46:0] $end
$var wire 8 0 outReg_ID_EX_AcumA_ID [7:0] $end
$var wire 8 1 outReg_ID_EX_AcumB_ID [7:0] $end
$var wire 10 2 outReg_ID_EX_BrDir_ID [9:0] $end
$var wire 8 3 outReg_ID_EX_Constant_ID [7:0] $end
$var wire 3 4 outReg_ID_EX_ControlAcum_ID [2:0] $end
$var wire 2 5 outReg_ID_EX_MemControl_ID [1:0] $end
$var wire 6 6 outReg_ID_EX_Operation_ID [5:0] $end
$var wire 2 7 outReg_ID_EX_OutSelMux_ID [1:0] $end
$var wire 47 8 outReg_ID_EX_bar [46:0] $end
$var wire 26 9 outReg_IF_ID [25:0] $end
$var wire 16 : outReg_IF_ID_FetchedInstr [15:0] $end
$var wire 10 ; outReg_IF_ID_NewPC [9:0] $end
$var wire 26 < outReg_IF_ID_bar [25:0] $end
$var wire 11 = outReg_MEM_WB [10:0] $end
$var wire 3 > outReg_MEM_WB_ControlAcum_MEM [2:0] $end
$var wire 16 ? outReg_MEM_WB_DataToWB_MEM [15:0] $end
$var wire 11 @ outReg_MEM_WB_bar [10:0] $end
$var wire 1 " reset $end
$var wire 8 A wAcumA_ID [7:0] $end
$var wire 8 B wAcumB_ID [7:0] $end
$var wire 8 C wAluResult_EX [7:0] $end
$var wire 10 D wBrDir_EX [9:0] $end
$var wire 10 E wBrDir_ID [9:0] $end
$var wire 10 F wBrDir_IF [9:0] $end
$var wire 1 G wBrTaken_EX $end
$var wire 1 H wBrTaken_IF $end
$var wire 8 I wConstant_ID [7:0] $end
$var wire 3 J wControlAcum_EX [2:0] $end
$var wire 3 K wControlAcum_ID [2:0] $end
$var wire 3 L wControlAcum_ID_WB [2:0] $end
$var wire 3 M wControlAcum_MEM [2:0] $end
$var wire 8 N wDataToWB_MEM [7:0] $end
$var wire 8 O wData_WB [7:0] $end
$var wire 16 P wFetchedInst_IF [15:0] $end
$var wire 2 Q wMemControl_EX [1:0] $end
$var wire 2 R wMemControl_ID [1:0] $end
$var wire 10 S wNewPC_IF [9:0] $end
$var wire 6 T wOperation_ID [5:0] $end
$var wire 2 U wOutSelMux_ID [1:0] $end
$scope module etapa1 $end
$var wire 1 ! clk $end
$var wire 10 V iBr_dir [9:0] $end
$var wire 1 H iBr_taken $end
$var wire 16 W oFetchedInst [15:0] $end
$var wire 10 X oNew_pc [9:0] $end
$var wire 1 " reset $end
$var wire 10 Y wPc_pointer [9:0] $end
$scope module pcIF $end
$var wire 1 ! clk $end
$var wire 10 Z iBr_dir [9:0] $end
$var wire 1 H iBr_taken $end
$var wire 1 " reset $end
$var reg 10 [ oNew_pc [9:0] $end
$var reg 10 \ oPc_pointer [9:0] $end
$upscope $end
$scope module instructMem $end
$var wire 10 ] iDir [9:0] $end
$var reg 16 ^ oInstruc [15:0] $end
$var reg 10 _ rClear [9:0] $end
$upscope $end
$upscope $end
$scope module registro_IF_ID $end
$var wire 1 ! clk $end
$var wire 1 " clr $end
$var wire 1 ` enable $end
$var wire 26 a in [25:0] $end
$var reg 26 b out [25:0] $end
$var reg 26 c out_bar [25:0] $end
$upscope $end
$scope module etapa2 $end
$var wire 10 d branchDir [9:0] $end
$var wire 8 e constant [7:0] $end
$var wire 3 f controlAcum_ID [2:0] $end
$var wire 3 g controlAcum_WB [2:0] $end
$var wire 8 h data [7:0] $end
$var wire 16 i instr [15:0] $end
$var wire 2 j memControl [1:0] $end
$var wire 10 k newPC [9:0] $end
$var wire 6 l operation [5:0] $end
$var wire 2 m outSelMux [1:0] $end
$var wire 8 n salidaAcumA [7:0] $end
$var wire 8 o salidaAcumB [7:0] $end
$scope module acumuladores $end
$var wire 3 p control [2:0] $end
$var wire 8 q data [7:0] $end
$var reg 8 r salidaAcumA [7:0] $end
$var reg 8 s salidaAcumB [7:0] $end
$upscope $end
$scope module decodificador $end
$var wire 8 t constant [7:0] $end
$var wire 16 u instr [15:0] $end
$var wire 6 v instrDecod [5:0] $end
$var wire 10 w instrInfo [9:0] $end
$var wire 10 x newPC [9:0] $end
$var wire 6 y operation [5:0] $end
$var wire 6 z saltoRel [5:0] $end
$var reg 10 { branchDir [9:0] $end
$var reg 3 | controlAcum [2:0] $end
$var reg 2 } memControl [1:0] $end
$var reg 2 ~ outSelMux [1:0] $end
$upscope $end
$upscope $end
$scope module registro_ID_EX $end
$var wire 1 ! clk $end
$var wire 1 " clr $end
$var wire 1 !" enable $end
$var wire 47 "" in [46:0] $end
$var reg 47 #" out [46:0] $end
$var reg 47 $" out_bar [46:0] $end
$upscope $end
$scope module etapa3 $end
$var wire 10 %" branchDir_EX [9:0] $end
$var wire 10 &" branchDir_ID [9:0] $end
$var wire 1 G branchTaken $end
$var wire 8 '" iAcumA [7:0] $end
$var wire 8 (" iAcumB [7:0] $end
$var wire 6 )" iAluInstSel [5:0] $end
$var wire 8 *" iAluOper1 [7:0] $end
$var wire 8 +" iAluOper2 [7:0] $end
$var wire 8 ," iConst [7:0] $end
$var wire 3 -" iControlAcum_ID [2:0] $end
$var wire 2 ." iMemControl_ID [1:0] $end
$var wire 8 /" oAluData [7:0] $end
$var wire 3 0" oControlAcum_EX [2:0] $end
$var wire 2 1" oMemControl_EX [1:0] $end
$var wire 2 2" outSelMuxExe [1:0] $end
$scope module aluEx $end
$var wire 6 3" iAluInstSel [5:0] $end
$var wire 8 4" iAluOper1 [7:0] $end
$var wire 8 5" iAluOper2 [7:0] $end
$var wire 6 6" sReg [5:0] $end
$var reg 1 7" BAN $end
$var reg 1 8" BAZ $end
$var reg 1 9" BBN $end
$var reg 1 :" BBZ $end
$var reg 1 ;" BCA $end
$var reg 1 <" BCB $end
$var reg 1 =" branchTaken $end
$var reg 8 >" oAluData [7:0] $end
$upscope $end
$upscope $end
$scope module registro_EX_MEM $end
$var wire 1 ! clk $end
$var wire 1 " clr $end
$var wire 1 ?" enable $end
$var wire 31 @" in [30:0] $end
$var reg 31 A" out [30:0] $end
$var reg 31 B" out_bar [30:0] $end
$upscope $end
$scope module etapa4 $end
$var wire 10 C" iAddresReadNWrite [9:0] $end
$var wire 8 D" iAluDataEX [7:0] $end
$var wire 3 E" iControlAcum_EX [2:0] $end
$var wire 8 F" iDataWriteValue [7:0] $end
$var wire 2 G" iOutMemSelect [1:0] $end
$var wire 3 H" oControlAcum_MEM [2:0] $end
$var wire 8 I" oDataRamRead [7:0] $end
$var wire 8 J" oDataToWB [7:0] $end
$scope module DATA_MEM $end
$var wire 8 K" iDataMemIn [7:0] $end
$var wire 10 L" iReadDataAddress [9:0] $end
$var wire 10 M" iWriteDataAddress [9:0] $end
$var wire 1 N" iWriteDataEnable $end
$var wire 1 O" memEnable $end
$var reg 8 P" oDataMemOut [7:0] $end
$upscope $end
$upscope $end
$scope module registro_MEM_WB $end
$var wire 1 ! clk $end
$var wire 1 " clr $end
$var wire 1 Q" enable $end
$var wire 11 R" in [10:0] $end
$var reg 11 S" out [10:0] $end
$var reg 11 T" out_bar [10:0] $end
$upscope $end
$upscope $end
$upscope $end
$enddefinitions $end
#0
$dumpvars
bx T"
bx S"
bx R"
1Q"
bx P"
xO"
xN"
bx M"
bx L"
bx K"
bx J"
bx I"
bx H"
bx G"
bx F"
bx E"
bx D"
bx C"
bx B"
bx A"
b0xxxxxxxxxxxxxxx @"
1?"
b0 >"
0="
x<"
x;"
x:"
x9"
x8"
x7"
bx 6"
bx 5"
bx 4"
bx 3"
bx 2"
bx 1"
bx 0"
b0 /"
bx ."
bx -"
bx ,"
bx +"
bx *"
bx )"
bx ("
bx '"
bx &"
bx %"
bx $"
bx #"
b0xxxxxxxxxxxxxxxxxxxxxxxxxxxxxxx ""
1!"
bx ~
bx }
bx |
bx {
bx z
bx y
bx x
bx w
bx v
bx u
bx t
b0 s
b0 r
bx q
bx p
b0 o
b0 n
bx m
bx l
bx k
bx j
bx i
bx h
bx g
bx f
bx e
bx d
bx c
bx b
b0xxxxxxxxxx a
1`
b0 _
b0 ^
bx ]
bx \
bx [
bx Z
bx Y
bx X
b0 W
bx V
bx U
bx T
bx S
bx R
bx Q
b0 P
bx O
bx N
bx M
bx L
bx K
bx J
bx I
0H
0G
bx F
bx E
bx D
b0 C
b0 B
b0 A
bx @
b0xxxxxxxx ?
bx >
bx =
bx <
bx ;
bx :
bx 9
bx 8
bx 7
bx 6
bx 5
bx 4
bx 3
bx 2
bx 1
bx 0
bx /
bx .
bx -
bx ,
bx +
bx *
bx )
bx (
b0xxxxxxxxxx '
b0xxxxxxxxxxxxxxxxxxxxxxxxxxxxxxx &
b0xxxxxxxxxxxxxxx %
0$
0#
0"
0!
$end
#5000
b0 {
b0 E
b0 d
b0 N
b0 J"
b0 I
b0 e
b0 t
b0 z
b0 }
b0 R
b0 j
b0 ~
b0 U
b0 m
b0 |
b0 K
b0 f
0O"
0N"
b0 v
b0 &
b0 ""
b0 T
b0 l
b0 y
b0 w
b0 *"
b0 4"
b0 +"
b0 5"
b0 .
b0 C"
b0 L"
b0 M"
b0 ,
b0 G"
b0 (
b0 R"
b0 M
b0 H"
b0 +
b0 E"
b0 *
b0 D"
b0 F"
b0 K"
b0 O
b0 h
b0 q
b0 :
b0 i
b0 u
b0 ;
b0 k
b0 x
b0 0
b0 '"
b0 1
b0 ("
b0 D
b0 %"
b0 F
b0 V
b0 Z
b0 2
b0 &"
b0 7
b0 2"
b0 6
b0 )"
b0 3"
b0 3
b0 ,"
b0 J
b0 0"
b0 4
b0 -"
b0 %
b0 @"
b0 Q
b0 1"
b0 5
b0 ."
b0 >
b0 L
b0 g
b0 p
b0 ?
b1 c
b1 <
b0 b
b0 9
b1 $"
b1 8
b0 #"
b0 /
b1 B"
b1 -
b0 A"
b0 )
b1 T"
b1 @
b0 S"
b0 =
b100000000101 ^
b100000000101 P
b100000000101 W
b1 [
b1000000001010000000001 '
b1000000001010000000001 a
b1 S
b1 X
b0 \
b0 Y
b0 ]
1#
1!
1$
1"
#10000
0#
0!
#15000
1#
1!
#20000
0#
0!
#25000
1#
1!
#28000
0$
0"
#30000
0#
0!
#35000
b101 I
b101 e
b101 t
b101 z
b1 |
b1 K
b1 f
b10 v
b10 T
b10 l
b10 y
b101 w
b111 {
b111000000100000010100100 &
b111000000100000010100100 ""
b111 E
b111 d
b100000000101 :
b100000000101 i
b100000000101 u
b10 ;
b10 k
b10 x
b0 c
b0 <
b1000000001010000000010 b
b1000000001010000000010 9
b110000000111 ^
b110000000111 P
b110000000111 W
b10 [
b1100000001110000000010 '
b1100000001110000000010 a
b10 S
b10 X
b1 \
b1 Y
b1 ]
1#
1!
#40000
0#
0!
#45000
07"
08"
bx0x0x 6"
b101 >"
b101 C
b101 /"
b1001 {
b1001 E
b1001 d
b111 I
b111 e
b111 t
b111 z
b11 |
b11 K
b11 f
b11 v
b1001000000110000011101100 &
b1001000000110000011101100 ""
b11 T
b11 l
b11 y
b111 w
b101 *"
b101 4"
b101 +"
b101 5"
b110000000111 :
b110000000111 i
b110000000111 u
b111 D
b111 %"
b111 F
b111 V
b111 Z
b111 2
b111 &"
b10 6
b10 )"
b10 3"
b101 3
b101 ,"
b101001000000000111 %
b101001000000000111 @"
b1 J
b1 0"
b1 4
b1 -"
b1100000001110000000010 b
b1100000001110000000010 9
b0 $"
b0 8
b111000000100000010100100 #"
b111000000100000010100100 /
b0 ^
b0 P
b0 W
b11 [
b11 '
b11 a
b11 S
b11 X
b10 \
b10 Y
b10 ]
1#
1!
#50000
0#
0!
#55000
x7"
09"
x8"
0:"
bx0x0 6"
b111 >"
b111 C
b111 /"
b101 N
b101 J"
b0 I
b0 e
b0 t
b0 z
b0 |
b0 K
b0 f
b111 .
b111 C"
b111 L"
b111 M"
b101001 (
b101001 R"
b1 M
b1 H"
b1 +
b1 E"
b101 *
b101 D"
b101 F"
b101 K"
b111 *"
b111 4"
b111 +"
b111 5"
b0 v
b0 T
b0 l
b0 y
b0 w
b100 {
b100000000000000000000000 &
b100000000000000000000000 ""
b100 E
b100 d
b1001 D
b1001 %"
b1001 F
b1001 V
b1001 Z
b1001 2
b1001 &"
b11 6
b11 )"
b11 3"
b111 3
b111 ,"
b111011000000001001 %
b111011000000001001 @"
b11 J
b11 0"
b11 4
b11 -"
b0 :
b0 i
b0 u
b100 ;
b100 k
b100 x
b0 B"
b0 -
b101001000000000111 A"
b101001000000000111 )
b1001000000110000011101100 #"
b1001000000110000011101100 /
b100 b
b100 9
b100 [
b100 '
b100 a
b100 S
b100 X
b11 \
b11 Y
b11 ]
1#
1!
#60000
0#
0!
#65000
b0 >"
b0 C
b0 /"
b111 N
b111 J"
b0 *"
b0 4"
b0 +"
b0 5"
b1001 .
b1001 C"
b1001 L"
b1001 M"
b111011 (
b111011 R"
b11 M
b11 H"
b11 +
b11 E"
b111 *
b111 D"
b111 F"
b111 K"
b101 r
b101000000000000000100000000000000000000000 &
b101000000000000000100000000000000000000000 ""
b101 A
b101 n
b101 O
b101 h
b101 q
b100 D
b100 %"
b100 F
b100 V
b100 Z
b100 2
b100 &"
b0 6
b0 )"
b0 3"
b0 3
b0 ,"
b100 %
b100 @"
b0 J
b0 0"
b0 4
b0 -"
b1 >
b1 L
b1 g
b1 p
b101 ?
b100000000000000000000000 #"
b100000000000000000000000 /
b111011000000001001 A"
b111011000000001001 )
b0 T"
b0 @
b101001 S"
b101001 =
b101 [
b101 '
b101 a
b101 S
b101 X
b100 \
b100 Y
b100 ]
1#
1!
#70000
0#
0!
#75000
b0 N
b0 J"
b111 s
b111 B
b111 o
b111 O
b111 h
b111 q
b100 .
b100 C"
b100 L"
b100 M"
b0 (
b0 R"
b0 M
b0 H"
b0 +
b0 E"
b0 *
b0 D"
b0 F"
b0 K"
b110 {
b101000001110000000110000000000000000000000 &
b101000001110000000110000000000000000000000 ""
b110 E
b110 d
b11 >
b11 L
b11 g
b11 p
b111 ?
b101 0
b101 '"
b110 ;
b110 k
b110 x
b111011 S"
b111011 =
b100 A"
b100 )
b101000000000000000100000000000000000000000 #"
b101000000000000000100000000000000000000000 /
b110 b
b110 9
b110 [
b110 '
b110 a
b110 S
b110 X
b101 \
b101 Y
b101 ]
1#
1!
#80000
0#
0!
#85000
b0 O
b0 h
b0 q
b111 1
b111 ("
b110 %
b110 @"
b110 D
b110 %"
b110 F
b110 V
b110 Z
b110 2
b110 &"
b0 >
b0 L
b0 g
b0 p
b0 ?
b101000001110000000110000000000000000000000 #"
b101000001110000000110000000000000000000000 /
b1 T"
b1 @
b0 S"
b0 =
b111 [
b111 '
b111 a
b111 S
b111 X
b110 \
b110 Y
b110 ]
1#
1!
#90000
0#
0!
#95000
b110 .
b110 C"
b110 L"
b110 M"
b1000 {
b101000001110000001000000000000000000000000 &
b101000001110000001000000000000000000000000 ""
b1000 E
b1000 d
b1000 ;
b1000 k
b1000 x
b110 A"
b110 )
b1000 b
b1000 9
b1000100100101 ^
b1000100100101 P
b1000100100101 W
b1000 [
b10001001001010000001000 '
b10001001001010000001000 a
b1000 S
b1000 X
b111 \
b111 Y
b111 ]
1#
1!
#100000
0#
0!
#105000
b100101 I
b100101 e
b100101 t
b100101 z
b11 }
b11 R
b11 j
b11 ~
b11 U
b11 m
b100100101 {
b100100101 E
b100100101 d
b100 v
b101000001110100100101110001000010010100011 &
b101000001110100100101110001000010010100011 ""
b100 T
b100 l
b100 y
b100100101 w
b1000100100101 :
b1000100100101 i
b1000100100101 u
b1000 %
b1000 @"
b1000 D
b1000 %"
b1000 F
b1000 V
b1000 Z
b1000 2
b1000 &"
b10001001001010000001000 b
b10001001001010000001000 9
b101000001110000001000000000000000000000000 #"
b101000001110000001000000000000000000000000 /
b0 ^
b0 P
b0 W
b1001 [
b1001 '
b1001 a
b1001 S
b1001 X
b1000 \
b1000 Y
b1000 ]
1#
1!
#110000
0#
0!
#115000
b101 >"
b101 C
b101 /"
b0 I
b0 e
b0 t
b0 z
b0 }
b0 R
b0 j
b0 ~
b0 U
b0 m
b1010 {
b1010 E
b1010 d
b1000 .
b1000 C"
b1000 L"
b1000 M"
b101 *"
b101 4"
b111 +"
b111 5"
b0 v
b101000001110000001010000000000000000000000 &
b101000001110000001010000000000000000000000 ""
b0 T
b0 l
b0 y
b0 w
b100100101 D
b100100101 %"
b100100101 F
b100100101 V
b100100101 Z
b100100101 2
b100100101 &"
b11 7
b11 2"
b100 6
b100 )"
b100 3"
b100101 3
b100101 ,"
b101000110100100101 %
b101000110100100101 @"
b11 Q
b11 1"
b11 5
b11 ."
b0 :
b0 i
b0 u
b1010 ;
b1010 k
b1010 x
b1000 A"
b1000 )
b101000001110100100101110001000010010100011 #"
b101000001110100100101110001000010010100011 /
b1010 b
b1010 9
b1010 [
b1010 '
b1010 a
b1010 S
b1010 X
b1001 \
b1001 Y
b1001 ]
1#
1!
#120000
0#
0!
#125000
b0 >"
b0 C
b0 /"
b0 *"
b0 4"
b0 +"
b0 5"
1O"
1N"
bx000 (
bx000 R"
bx N
bx J"
b100100101 .
b100100101 C"
b100100101 L"
b100100101 M"
b11 ,
b11 G"
b101 *
b101 D"
b101 F"
b101 K"
b1010 D
b1010 %"
b1010 F
b1010 V
b1010 Z
b1010 2
b1010 &"
b0 7
b0 2"
b0 6
b0 )"
b0 3"
b0 3
b0 ,"
b1010 %
b1010 @"
b0 Q
b0 1"
b0 5
b0 ."
b101000001110000001010000000000000000000000 #"
b101000001110000001010000000000000000000000 /
b101000110100100101 A"
b101000110100100101 )
b1011 [
b1011 '
b1011 a
b1011 S
b1011 X
b1010 \
b1010 Y
b1010 ]
1#
1!
#130000
0#
0!
#135000
b0 (
b0 R"
b0 N
b0 J"
0O"
0N"
bx O
bx h
bx q
b1010 .
b1010 C"
b1010 L"
b1010 M"
b0 ,
b0 G"
b0 *
b0 D"
b0 F"
b0 K"
b1100 {
b101000001110000001100000000000000000000000 &
b101000001110000001100000000000000000000000 ""
b1100 E
b1100 d
b0xxxxxxxx ?
b1100 ;
b1100 k
b1100 x
b0x T"
b0x @
bx000 S"
bx000 =
b1010 A"
b1010 )
b1100 b
b1100 9
b1100 [
b1100 '
b1100 a
b1100 S
b1100 X
b1011 \
b1011 Y
b1011 ]
1#
1!
#140000
0#
0!
#145000
b0 O
b0 h
b0 q
b1100 %
b1100 @"
b1100 D
b1100 %"
b1100 F
b1100 V
b1100 Z
b1100 2
b1100 &"
b0 ?
b101000001110000001100000000000000000000000 #"
b101000001110000001100000000000000000000000 /
b1 T"
b1 @
b0 S"
b0 =
b1101 [
b1101 '
b1101 a
b1101 S
b1101 X
b1100 \
b1100 Y
b1100 ]
1#
1!
#150000
0#
0!
#155000
b1100 .
b1100 C"
b1100 L"
b1100 M"
b1110 {
b101000001110000001110000000000000000000000 &
b101000001110000001110000000000000000000000 ""
b1110 E
b1110 d
b1110 ;
b1110 k
b1110 x
b1100 A"
b1100 )
b1110 b
b1110 9
b1001010100100101 ^
b1001010100100101 P
b1001010100100101 W
b1110 [
b10010101001001010000001110 '
b10010101001001010000001110 a
b1110 S
b1110 X
b1101 \
b1101 Y
b1101 ]
1#
1!
#160000
0#
0!
#165000
b100101 I
b100101 e
b100101 t
b100101 z
b1 }
b1 R
b1 j
b10 |
b10 K
b10 f
b100100101 {
b100100101 E
b100100101 d
b100101 v
b101000001110100100101001001010010010101001 &
b101000001110100100101001001010010010101001 ""
b100101 T
b100101 l
b100101 y
b100100101 w
b1001010100100101 :
b1001010100100101 i
b1001010100100101 u
b1110 %
b1110 @"
b1110 D
b1110 %"
b1110 F
b1110 V
b1110 Z
b1110 2
b1110 &"
b10010101001001010000001110 b
b10010101001001010000001110 9
b101000001110000001110000000000000000000000 #"
b101000001110000001110000000000000000000000 /
b1100000000000 ^
b1100000000000 P
b1100000000000 W
b1111 [
b11000000000000000001111 '
b11000000000000000001111 a
b1111 S
b1111 X
b1110 \
b1110 Y
b1110 ]
1#
1!
#170000
0#
0!
#175000
07"
08"
bx0000 6"
b100101 >"
b100101 C
b100101 /"
b0 I
b0 e
b0 t
b0 z
b0 }
b0 R
b0 j
b11 ~
b11 U
b11 m
b10000 {
b10000 E
b10000 d
b1110 .
b1110 C"
b1110 L"
b1110 M"
b100101 *"
b100101 4"
b100101 +"
b100101 5"
b110 v
b101000001110000010000110001100000000001000 &
b101000001110000010000110001100000000001000 ""
b110 T
b110 l
b110 y
b0 w
b100100101 D
b100100101 %"
b100100101 F
b100100101 V
b100100101 Z
b100100101 2
b100100101 &"
b100101 6
b100101 )"
b100101 3"
b100101 3
b100101 ,"
b10 J
b10 0"
b10 4
b10 -"
b100101010010100100101 %
b100101010010100100101 @"
b1 Q
b1 1"
b1 5
b1 ."
b1100000000000 :
b1100000000000 i
b1100000000000 u
b10000 ;
b10000 k
b10000 x
b1110 A"
b1110 )
b101000001110100100101001001010010010101001 #"
b101000001110100100101001001010010010101001 /
b11000000000000000010000 b
b11000000000000000010000 9
b110110000110010 ^
b110110000110010 P
b110110000110010 W
b10000 [
b1101100001100100000010000 '
b1101100001100100000010000 a
b10000 S
b10000 X
b1111 \
b1111 Y
b1111 ]
1#
1!
#180000
0#
0!
#185000
0;"
b0x0000 6"
b1100 >"
b1100 C
b1100 /"
b1000010 {
b1000010 E
b1000010 d
b110010 I
b110010 e
b110010 t
b110010 z
b0 ~
b0 U
b0 m
b0 |
b0 K
b0 f
1O"
bx N
bx J"
b11011 v
b101000001110001000010000110110011001000000 &
b101000001110001000010000110110011001000000 ""
b11011 T
b11011 l
b11011 y
b110010 w
b101 *"
b101 4"
b111 +"
b111 5"
b100100101 .
b100100101 C"
b100100101 L"
b100100101 M"
b1 ,
b1 G"
bx010 (
bx010 R"
b10 M
b10 H"
b10 +
b10 E"
b100101 *
b100101 D"
b100101 F"
b100101 K"
b110110000110010 :
b110110000110010 i
b110110000110010 u
b10000 D
b10000 %"
b10000 F
b10000 V
b10000 Z
b10000 2
b10000 &"
b11 7
b11 2"
b110 6
b110 )"
b110 3"
b0 3
b0 ,"
b1100010000000010000 %
b1100010000000010000 @"
b0 Q
b0 1"
b0 5
b0 ."
b1101100001100100000010000 b
b1101100001100100000010000 9
b101000001110000010000110001100000000001000 #"
b101000001110000010000110001100000000001000 /
b100101010010100100101 A"
b100101010010100100101 )
b0 ^
b0 P
b0 W
b10001 [
b10001 '
b10001 a
b10001 S
b10001 X
b10000 \
b10000 Y
b10000 ]
1#
1!
#190000
0#
0!
#195000
b0 >"
b0 C
b0 /"
b1100010 (
b1100010 R"
b1100 N
b1100 J"
0O"
b110010 *"
b110010 4"
b110010 +"
b110010 5"
b0 I
b0 e
b0 t
b0 z
bx r
bx A
bx n
bx O
bx h
bx q
b10000 .
b10000 C"
b10000 L"
b10000 M"
b0 ,
b0 G"
b1100 *
b1100 D"
b1100 F"
b1100 K"
b0 v
b0 T
b0 l
b0 y
b0 w
b10010 {
bx000001110000010010000000000000000000000 &
bx000001110000010010000000000000000000000 ""
b10010 E
b10010 d
b10 >
b10 L
b10 g
b10 p
b0xxxxxxxx ?
b1000010 D
b1000010 %"
b1000010 F
b1000010 V
b1000010 Z
b1000010 2
b1000010 &"
b0 7
b0 2"
b11011 6
b11011 )"
b11011 3"
b110010 3
b110010 ,"
b1000010 %
b1000010 @"
b0 J
b0 0"
b0 4
b0 -"
b0 :
b0 i
b0 u
b10010 ;
b10010 k
b10010 x
b0 T"
b0 @
bx010 S"
bx010 =
b1100010000000010000 A"
b1100010000000010000 )
b101000001110001000010000110110011001000000 #"
b101000001110001000010000110110011001000000 /
b10010 b
b10010 9
b10010 [
b10010 '
b10010 a
b10010 S
b10010 X
b10001 \
b10001 Y
b10001 ]
1#
1!
#200000
0#
0!
#205000
b0 N
b0 J"
b0 *"
b0 4"
b0 +"
b0 5"
b1000010 .
b1000010 C"
b1000010 L"
b1000010 M"
b0 (
b0 R"
b0 M
b0 H"
b0 +
b0 E"
b0 *
b0 D"
b0 F"
b0 K"
b1100 O
b1100 h
b1100 q
bx 0
bx '"
b10010 %
b10010 @"
b10010 D
b10010 %"
b10010 F
b10010 V
b10010 Z
b10010 2
b10010 &"
b0 6
b0 )"
b0 3"
b0 3
b0 ,"
b1100 ?
bx000001110000010010000000000000000000000 #"
bx000001110000010010000000000000000000000 /
b1000010 A"
b1000010 )
b1100010 S"
b1100010 =
b10011 [
b10011 '
b10011 a
b10011 S
b10011 X
b10010 \
b10010 Y
b10010 ]
1#
1!
#210000
0#
0!
#215000
b0 O
b0 h
b0 q
b10010 .
b10010 C"
b10010 L"
b10010 M"
b10100 {
bx000001110000010100000000000000000000000 &
bx000001110000010100000000000000000000000 ""
b10100 E
b10100 d
b0 >
b0 L
b0 g
b0 p
b0 ?
b10100 ;
b10100 k
b10100 x
b1 T"
b1 @
b0 S"
b0 =
b10010 A"
b10010 )
b10100 b
b10100 9
b10100 [
b10100 '
b10100 a
b10100 S
b10100 X
b10011 \
b10011 Y
b10011 ]
1#
1!
#220000
0#
0!
#225000
b10100 %
b10100 @"
b10100 D
b10100 %"
b10100 F
b10100 V
b10100 Z
b10100 2
b10100 &"
bx000001110000010100000000000000000000000 #"
bx000001110000010100000000000000000000000 /
b10101 [
b10101 '
b10101 a
b10101 S
b10101 X
b10100 \
b10100 Y
b10100 ]
1#
1!
#230000
0#
0!
#235000
b10100 .
b10100 C"
b10100 L"
b10100 M"
b10110 {
bx000001110000010110000000000000000000000 &
bx000001110000010110000000000000000000000 ""
b10110 E
b10110 d
b10110 ;
b10110 k
b10110 x
b10100 A"
b10100 )
b10110 b
b10110 9
b10110 [
b10110 '
b10110 a
b10110 S
b10110 X
b10101 \
b10101 Y
b10101 ]
1#
1!
#240000
0#
0!
#245000
b10110 %
b10110 @"
b10110 D
b10110 %"
b10110 F
b10110 V
b10110 Z
b10110 2
b10110 &"
bx000001110000010110000000000000000000000 #"
bx000001110000010110000000000000000000000 /
b10111 [
b10111 '
b10111 a
b10111 S
b10111 X
b10110 \
b10110 Y
b10110 ]
1#
1!
#250000
0#
0!
#255000
b10110 .
b10110 C"
b10110 L"
b10110 M"
b11000 {
bx000001110000011000000000000000000000000 &
bx000001110000011000000000000000000000000 ""
b11000 E
b11000 d
b11000 ;
b11000 k
b11000 x
b10110 A"
b10110 )
b11000 b
b11000 9
b11000 [
b11000 '
b11000 a
b11000 S
b11000 X
b10111 \
b10111 Y
b10111 ]
1#
1!
#260000
0#
0!
#265000
b11000 %
b11000 @"
b11000 D
b11000 %"
b11000 F
b11000 V
b11000 Z
b11000 2
b11000 &"
bx000001110000011000000000000000000000000 #"
bx000001110000011000000000000000000000000 /
b11001 [
b11001 '
b11001 a
b11001 S
b11001 X
b11000 \
b11000 Y
b11000 ]
1#
1!
#270000
0#
0!
#275000
b11000 .
b11000 C"
b11000 L"
b11000 M"
b11010 {
bx000001110000011010000000000000000000000 &
bx000001110000011010000000000000000000000 ""
b11010 E
b11010 d
b11010 ;
b11010 k
b11010 x
b11000 A"
b11000 )
b11010 b
b11010 9
b11010 [
b11010 '
b11010 a
b11010 S
b11010 X
b11001 \
b11001 Y
b11001 ]
1#
1!
#280000
0#
0!
#285000
b11010 %
b11010 @"
b11010 D
b11010 %"
b11010 F
b11010 V
b11010 Z
b11010 2
b11010 &"
bx000001110000011010000000000000000000000 #"
bx000001110000011010000000000000000000000 /
b11011 [
b11011 '
b11011 a
b11011 S
b11011 X
b11010 \
b11010 Y
b11010 ]
1#
1!
#290000
0#
0!
#295000
b11010 .
b11010 C"
b11010 L"
b11010 M"
b11100 {
bx000001110000011100000000000000000000000 &
bx000001110000011100000000000000000000000 ""
b11100 E
b11100 d
b11100 ;
b11100 k
b11100 x
b11010 A"
b11010 )
b11100 b
b11100 9
b11100 [
b11100 '
b11100 a
b11100 S
b11100 X
b11011 \
b11011 Y
b11011 ]
1#
1!
#300000
0#
0!
#305000
b11100 %
b11100 @"
b11100 D
b11100 %"
b11100 F
b11100 V
b11100 Z
b11100 2
b11100 &"
bx000001110000011100000000000000000000000 #"
bx000001110000011100000000000000000000000 /
b11101 [
b11101 '
b11101 a
b11101 S
b11101 X
b11100 \
b11100 Y
b11100 ]
1#
1!
#310000
0#
0!
#315000
b11100 .
b11100 C"
b11100 L"
b11100 M"
b11110 {
bx000001110000011110000000000000000000000 &
bx000001110000011110000000000000000000000 ""
b11110 E
b11110 d
b11110 ;
b11110 k
b11110 x
b11100 A"
b11100 )
b11110 b
b11110 9
b11110 [
b11110 '
b11110 a
b11110 S
b11110 X
b11101 \
b11101 Y
b11101 ]
1#
1!
#320000
0#
0!
#325000
b11110 %
b11110 @"
b11110 D
b11110 %"
b11110 F
b11110 V
b11110 Z
b11110 2
b11110 &"
bx000001110000011110000000000000000000000 #"
bx000001110000011110000000000000000000000 /
b11111 [
b11111 '
b11111 a
b11111 S
b11111 X
b11110 \
b11110 Y
b11110 ]
1#
1!
#330000
0#
0!
