tarea4/pruebaPIPE.vcd
$date
	Wed Jul  1 22:30:44 2015
$end
$version
	Icarus Verilog
$end
$timescale
	1ps
$end
$scope module tester $end
$var wire 1 ! clk $end
$var wire 1 " reset $end
$scope module test $end
$var reg 1 # clk $end
$var reg 1 $ reset $end
$upscope $end
$scope module pegado $end
$var wire 1 ! clk $end
$var wire 37 % inputReg_EX_MEM [36:0] $end
$var wire 47 & inputReg_ID_EX [46:0] $end
$var wire 26 ' inputReg_IF_ID [25:0] $end
$var wire 11 ( inputReg_MEM_WB [10:0] $end
$var wire 37 ) outReg_EX_MEM [36:0] $end
$var wire 8 * outReg_EX_MEM_AluResult_EX [7:0] $end
$var wire 3 + outReg_EX_MEM_ControlAcum_EX [2:0] $end
$var wire 2 , outReg_EX_MEM_MemControl_EX [1:0] $end
$var wire 37 - outReg_EX_MEM_bar [36:0] $end
$var wire 10 . outReg_EX_MEM_wBrDir_EX [9:0] $end
$var wire 6 / outReg_EX_MEM_wInstr_EX [5:0] $end
$var wire 47 0 outReg_ID_EX [46:0] $end
$var wire 8 1 outReg_ID_EX_AcumA_ID [7:0] $end
$var wire 8 2 outReg_ID_EX_AcumB_ID [7:0] $end
$var wire 10 3 outReg_ID_EX_BrDir_ID [9:0] $end
$var wire 8 4 outReg_ID_EX_Constant_ID [7:0] $end
$var wire 3 5 outReg_ID_EX_ControlAcum_ID [2:0] $end
$var wire 2 6 outReg_ID_EX_MemControl_ID [1:0] $end
$var wire 6 7 outReg_ID_EX_Operation_ID [5:0] $end
$var wire 2 8 outReg_ID_EX_OutSelMux_ID [1:0] $end
$var wire 47 9 outReg_ID_EX_bar [46:0] $end
$var wire 26 : outReg_IF_ID [25:0] $end
$var wire 16 ; outReg_IF_ID_FetchedInstr [15:0] $end
$var wire 10 < outReg_IF_ID_NewPC [9:0] $end
$var wire 26 = outReg_IF_ID_bar [25:0] $end
$var wire 11 > outReg_MEM_WB [10:0] $end
$var wire 3 ? outReg_MEM_WB_ControlAcum_MEM [2:0] $end
$var wire 16 @ outReg_MEM_WB_DataToWB_MEM [15:0] $end
$var wire 11 A outReg_MEM_WB_bar [10:0] $end
$var wire 1 " reset $end
$var wire 8 B wAcumA_ID [7:0] $end
$var wire 8 C wAcumB_ID [7:0] $end
$var wire 8 D wAluResult_EX [7:0] $end
$var wire 10 E wBrDir_EX [9:0] $end
$var wire 10 F wBrDir_ID [9:0] $end
$var wire 10 G wBrDir_IF [9:0] $end
$var wire 1 H wBrTaken_EX $end
$var wire 1 I wBrTaken_IF $end
$var wire 8 J wConstant_ID [7:0] $end
$var wire 3 K wControlAcum_EX [2:0] $end
$var wire 3 L wControlAcum_ID [2:0] $end
$var wire 3 M wControlAcum_ID_WB [2:0] $end
$var wire 3 N wControlAcum_MEM [2:0] $end
$var wire 8 O wDataToWB_MEM [7:0] $end
$var wire 8 P wData_WB [7:0] $end
$var wire 16 Q wFetchedInst_IF [15:0] $end
$var wire 6 R wInstr_EX [5:0] $end
$var wire 2 S wMemControl_EX [1:0] $end
$var wire 2 T wMemControl_ID [1:0] $end
$var wire 10 U wNewPC_IF [9:0] $end
$var wire 6 V wOperation_ID [5:0] $end
$var wire 2 W wOutSelMux_ID [1:0] $end
$scope module etapa1 $end
$var wire 1 ! clk $end
$var wire 10 X iBr_dir [9:0] $end
$var wire 1 I iBr_taken $end
$var wire 16 Y oFetchedInst [15:0] $end
$var wire 10 Z oNew_pc [9:0] $end
$var wire 1 " reset $end
$var wire 10 [ wPc_pointer [9:0] $end
$scope module pcIF $end
$var wire 1 ! clk $end
$var wire 10 \ iBr_dir [9:0] $end
$var wire 1 I iBr_taken $end
$var wire 1 " reset $end
$var reg 10 ] oNew_pc [9:0] $end
$var reg 10 ^ oPc_pointer [9:0] $end
$upscope $end
$scope module instructMem $end
$var wire 10 _ iDir [9:0] $end
$var reg 16 ` oInstruc [15:0] $end
$var reg 10 a rClear [9:0] $end
$upscope $end
$upscope $end
$scope module registro_IF_ID $end
$var wire 1 ! clk $end
$var wire 1 b clr $end
$var wire 1 c enable $end
$var wire 26 d in [25:0] $end
$var reg 26 e out [25:0] $end
$var reg 26 f out_bar [25:0] $end
$upscope $end
$scope module etapa2 $end
$var wire 10 g branchDir [9:0] $end
$var wire 8 h constant [7:0] $end
$var wire 3 i controlAcum_ID [2:0] $end
$var wire 3 j controlAcum_WB [2:0] $end
$var wire 8 k data [7:0] $end
$var wire 16 l instr [15:0] $end
$var wire 2 m memControl [1:0] $end
$var wire 10 n newPC [9:0] $end
$var wire 6 o operation [5:0] $end
$var wire 2 p outSelMux [1:0] $end
$var wire 8 q salidaAcumA [7:0] $end
$var wire 8 r salidaAcumB [7:0] $end
$scope module acumuladores $end
$var wire 3 s control [2:0] $end
$var wire 8 t data [7:0] $end
$var reg 8 u salidaAcumA [7:0] $end
$var reg 8 v salidaAcumB [7:0] $end
$upscope $end
$scope module decodificador $end
$var wire 8 w constant [7:0] $end
$var wire 16 x instr [15:0] $end
$var wire 6 y instrDecod [5:0] $end
$var wire 10 z instrInfo [9:0] $end
$var wire 10 { newPC [9:0] $end
$var wire 6 | operation [5:0] $end
$var wire 6 } saltoRel [5:0] $end
$var reg 10 ~ branchDir [9:0] $end
$var reg 3 !" controlAcum [2:0] $end
$var reg 2 "" memControl [1:0] $end
$var reg 2 #" outSelMux [1:0] $end
$upscope $end
$upscope $end
$scope module registro_ID_EX $end
$var wire 1 ! clk $end
$var wire 1 " clr $end
$var wire 1 $" enable $end
$var wire 47 %" in [46:0] $end
$var reg 47 &" out [46:0] $end
$var reg 47 '" out_bar [46:0] $end
$upscope $end
$scope module etapa3 $end
$var wire 8 (" HZDresult [7:0] $end
$var wire 8 )" HZDresult_bar [7:0] $end
$var wire 1 ! aluClk $end
$var wire 1 " aluReset $end
$var wire 10 *" branchDir_EX [9:0] $end
$var wire 10 +" branchDir_ID [9:0] $end
$var wire 1 H branchTaken $end
$var wire 1 ," exeHazardA $end
$var wire 1 -" exeHazardB $end
$var wire 8 ." iAcumA [7:0] $end
$var wire 8 /" iAcumB [7:0] $end
$var wire 6 0" iAluInstSel [5:0] $end
$var wire 8 1" iAluOper1 [7:0] $end
$var wire 8 2" iAluOper2 [7:0] $end
$var wire 8 3" iConst [7:0] $end
$var wire 3 4" iControlAcum_ID [2:0] $end
$var wire 2 5" iMemControl_ID [1:0] $end
$var wire 8 6" oAluData [7:0] $end
$var wire 3 7" oControlAcum_EX [2:0] $end
$var wire 6 8" oInstr_EX [5:0] $end
$var wire 2 9" oMemControl_EX [1:0] $end
$var wire 6 :" oldInstr_EX [5:0] $end
$var wire 6 ;" oldInstr_EX_bar [5:0] $end
$var wire 2 <" outSelMuxExe [1:0] $end
$var wire 8 =" realAluOp1 [7:0] $end
$var wire 8 >" realAluOp2 [7:0] $end
$scope module regEXEHazards $end
$var wire 1 ! clk $end
$var wire 1 " clr $end
$var wire 1 ?" enable $end
$var wire 6 @" in [5:0] $end
$var reg 6 A" out [5:0] $end
$var reg 6 B" out_bar [5:0] $end
$upscope $end
$scope module regRESHazard $end
$var wire 1 ! clk $end
$var wire 1 " clr $end
$var wire 1 C" enable $end
$var wire 8 D" in [7:0] $end
$var reg 8 E" out [7:0] $end
$var reg 8 F" out_bar [7:0] $end
$upscope $end
$scope module aluEx $end
$var wire 6 G" iAluInstSel [5:0] $end
$var wire 8 H" iAluOper1 [7:0] $end
$var wire 8 I" iAluOper2 [7:0] $end
$var wire 6 J" sReg [5:0] $end
$var reg 1 K" BAN $end
$var reg 1 L" BAZ $end
$var reg 1 M" BBN $end
$var reg 1 N" BBZ $end
$var reg 1 O" BCA $end
$var reg 1 P" BCB $end
$var reg 1 Q" branchTaken $end
$var reg 8 R" oAluData [7:0] $end
$upscope $end
$upscope $end
$scope module registro_EX_MEM $end
$var wire 1 ! clk $end
$var wire 1 S" clr $end
$var wire 1 T" enable $end
$var wire 37 U" in [36:0] $end
$var reg 37 V" out [36:0] $end
$var reg 37 W" out_bar [36:0] $end
$upscope $end
$scope module etapa4 $end
$var wire 10 X" iAddresReadNWrite [9:0] $end
$var wire 8 Y" iAluDataEX [7:0] $end
$var wire 3 Z" iControlAcum_EX [2:0] $end
$var wire 6 [" iInstr_EX [5:0] $end
$var wire 2 \" iOutMemSelect [1:0] $end
$var wire 1 ! memClk $end
$var wire 1 ]" memHazard $end
$var wire 1 " memReset $end
$var wire 3 ^" oControlAcum_MEM [2:0] $end
$var wire 8 _" oDataRamRead [7:0] $end
$var wire 8 `" oDataToWB [7:0] $end
$var wire 8 a" oldDataToWB [7:0] $end
$var wire 8 b" oldDataToWB_bar [7:0] $end
$var wire 6 c" oldInstr_MEM [5:0] $end
$var wire 6 d" oldInstr_MEM_bar [5:0] $end
$var wire 8 e" wDataMemIn [7:0] $end
$scope module regMemHazard $end
$var wire 1 ! clk $end
$var wire 1 " clr $end
$var wire 1 f" enable $end
$var wire 6 g" in [5:0] $end
$var reg 6 h" out [5:0] $end
$var reg 6 i" out_bar [5:0] $end
$upscope $end
$scope module regDataToWBHazard $end
$var wire 1 ! clk $end
$var wire 1 " clr $end
$var wire 1 j" enable $end
$var wire 8 k" in [7:0] $end
$var reg 8 l" out [7:0] $end
$var reg 8 m" out_bar [7:0] $end
$upscope $end
$scope module DATA_MEM $end
$var wire 1 ! clk $end
$var wire 8 n" iDataMemIn [7:0] $end
$var wire 10 o" iReadDataAddress [9:0] $end
$var wire 10 p" iWriteDataAddress [9:0] $end
$var wire 1 q" iWriteDataEnable $end
$var wire 1 r" memEnable $end
$var reg 8 s" oDataMemOut [7:0] $end
$upscope $end
$upscope $end
$scope module registro_MEM_WB $end
$var wire 1 ! clk $end
$var wire 1 t" clr $end
$var wire 1 u" enable $end
$var wire 11 v" in [10:0] $end
$var reg 11 w" out [10:0] $end
$var reg 11 x" out_bar [10:0] $end
$upscope $end
$upscope $end
$upscope $end
$enddefinitions $end
#0
$dumpvars
bx x"
bx w"
bx v"
1u"
0t"
bx s"
xr"
xq"
bx p"
bx o"
bx n"
bx m"
bx l"
bx k"
1j"
bx i"
bx h"
bx g"
1f"
bx e"
bx d"
bx c"
bx b"
bx a"
bx `"
bx _"
bx ^"
x]"
bx \"
bx ["
bx Z"
bx Y"
bx X"
bx W"
bx V"
b0xxxxxxxxxxxxxxxxxxxxxxxxxxxxx U"
1T"
0S"
bx R"
0Q"
xP"
xO"
xN"
xM"
xL"
xK"
bx J"
bx I"
bx H"
bx G"
bx F"
bx E"
bx D"
1C"
bx B"
bx A"
bx @"
1?"
bx >"
bx ="
bx <"
bx ;"
bx :"
bx 9"
bx 8"
bx 7"
bx 6"
bx 5"
bx 4"
bx 3"
bx 2"
bx 1"
bx 0"
bx /"
bx ."
x-"
x,"
bx +"
bx *"
bx )"
bx ("
bx '"
bx &"
bx %"
1$"
bx #"
bx ""
bx !"
bx ~
bx }
bx |
bx {
bx z
bx y
bx x
bx w
bx v
bx u
bx t
bx s
bx r
bx q
bx p
bx o
bx n
bx m
bx l
bx k
bx j
bx i
bx h
bx g
bx f
bx e
b0xxxxxxxxxx d
1c
0b
b0 a
b0 `
bx _
bx ^
bx ]
bx \
bx [
bx Z
b0 Y
bx X
bx W
bx V
bx U
bx T
bx S
bx R
b0 Q
bx P
bx O
bx N
bx M
bx L
bx K
bx J
0I
0H
bx G
bx F
bx E
bx D
bx C
bx B
bx A
b0xxxxxxxx @
bx ?
bx >
bx =
bx <
bx ;
bx :
bx 9
bx 8
bx 7
bx 6
bx 5
bx 4
bx 3
bx 2
bx 1
bx 0
bx /
bx .
bx -
bx ,
bx +
bx *
bx )
bx (
b0xxxxxxxxxx '
bx &
b0xxxxxxxxxxxxxxxxxxxxxxxxxxxxx %
0$
0#
0"
0!
$end
#5000
b0 ~
b0 F
b0 g
b0 O
b0 `"
b0 k"
0]"
b0 J
b0 h
b0 w
b0 }
b0 ""
b0 T
b0 m
b0 #"
b0 W
b0 p
b0 !"
b0 L
b0 i
0r"
0q"
b0 e"
b0 n"
b0 1"
b0 H"
b0 2"
b0 I"
0-"
0,"
b0 y
bx0000000000000000000000000000000 &
bx0000000000000000000000000000000 %"
b0 V
b0 o
b0 |
b0 z
b0 /
b0 ["
b0 g"
b0 .
b0 X"
b0 o"
b0 p"
b0 ,
b0 \"
b0 (
b0 v"
b0 N
b0 ^"
b0 +
b0 Z"
b0 *
b0 Y"
b0 P
b0 k
b0 t
b0 ="
b0 >"
b0 ;
b0 l
b0 x
b0 <
b0 n
b0 {
b0 ?
b0 M
b0 j
b0 s
b0 @
b0 1
b0 ."
b0 2
b0 /"
b0 E
b0 *"
b0 G
b0 X
b0 \
b0 3
b0 +"
b0 8
b0 <"
b0 R
b0 8"
b0 7
b0 0"
b0 @"
b0 G"
b0 4
b0 3"
b0 K
b0 7"
b0 5
b0 4"
b0xxxxxxxx000000000000000000000 %
b0xxxxxxxx000000000000000000000 U"
b0 S
b0 9"
b0 6
b0 5"
b1 f
b1 =
b0 e
b0 :
b1 W"
b1 -
b0 V"
b0 )
b1 x"
b1 A
b0 w"
b0 >
b1 '"
b1 9
b0 &"
b0 0
b1 B"
b1 ;"
b0 A"
b0 :"
b1 F"
b1 )"
b0 E"
b0 ("
b1 i"
b1 d"
b0 h"
b0 c"
b1 m"
b1 b"
b0 l"
b0 a"
b110000110101 `
b110000110101 Q
b110000110101 Y
b1 ]
b1100001101010000000001 '
b1100001101010000000001 d
b1 U
b1 Z
b0 ^
b0 [
b0 _
1b
1S"
1t"
1#
1!
1$
1"
#10000
0#
0!
#15000
1#
1!
#20000
0#
0!
#25000
1#
1!
#28000
0b
0S"
0t"
0$
0"
#30000
b110101 J
b110101 h
b110101 w
b110101 }
b1 !"
b1 L
b1 i
bx e"
bx n"
bx000 (
bx000 v"
bx O
bx `"
bx k"
b11 y
b11 V
b11 o
b11 |
b110101 z
b1111110110 ~
bx1111110110000000110011010100100 &
bx1111110110000000110011010100100 %"
b1111110110 F
b1111110110 g
bx ="
bx >"
bx *
bx Y"
b110000110101 ;
b110000110101 l
b110000110101 x
b1 <
b1 n
b1 {
bx 1
bx ."
bx 2
bx /"
b0 f
b0 =
b1100001101010000000001 e
b1100001101010000000001 :
b0x '"
b0x 9
bx0000000000000000000000000000000 &"
bx0000000000000000000000000000000 0
b0x F"
b0x )"
bx E"
bx ("
b0x W"
b0x -
b0xxxxxxxx000000000000000000000 V"
b0xxxxxxxx000000000000000000000 )
0#
0!
#35000
b0 `
b0 Q
b0 Y
b10 ]
b10 '
b10 d
b10 U
b10 Z
b1 ^
b1 [
b1 _
1#
1!
#40000
0L"
0K"
bx0x0x J"
b110101 R"
b110101 D
b110101 6"
b110101 D"
b0 J
b0 h
b0 w
b0 }
b0 !"
b0 L
b0 i
bx P
bx k
bx t
b110101 1"
b110101 H"
b110101 2"
b110101 I"
b0 y
b0 V
b0 o
b0 |
b0 z
b10 ~
bx0000000010000000000000000000000 &
bx0000000010000000000000000000000 %"
b10 F
b10 g
b0xxxxxxxx @
b1111110110 E
b1111110110 *"
b1111110110 G
b1111110110 X
b1111110110 \
b1111110110 3
b1111110110 +"
b11 R
b11 8"
b11 7
b11 0"
b11 @"
b11 G"
b110101 4
b110101 3"
b110101001001111110110000011 %
b110101001001111110110000011 U"
b1 K
b1 7"
b1 5
b1 4"
b0 ;
b0 l
b0 x
b10 <
b10 n
b10 {
b0x x"
b0x A
bx000 w"
bx000 >
b0x m"
b0x b"
bx l"
bx a"
b0 '"
b0 9
bx1111110110000000110011010100100 &"
bx1111110110000000110011010100100 0
b10 e
b10 :
0#
0!
#45000
b11 ]
b11 '
b11 d
b11 U
b11 Z
b10 ^
b10 [
b10 _
1#
1!
#50000
b110101 e"
b110101 n"
b110101 O
b110101 `"
b110101 k"
b11 ~
bx0000000011000000000000000000000 &
bx0000000011000000000000000000000 %"
b11 F
b11 g
b0 1"
b0 H"
b0 2"
b0 I"
b11 /
b11 ["
b11 g"
b1111110110 .
b1111110110 X"
b1111110110 o"
b1111110110 p"
b110101001 (
b110101001 v"
b1 N
b1 ^"
b1 +
b1 Z"
b110101 *
b110101 Y"
b11 <
b11 n
b11 {
b10 E
b10 *"
b10 G
b10 X
b10 \
b10 3
b10 +"
b0 R
b0 8"
b0 7
b0 0"
b0 @"
b0 G"
b0 4
b0 3"
b110101000000000000010000000 %
b110101000000000000010000000 U"
b0 K
b0 7"
b0 5
b0 4"
b11 e
b11 :
bx0000000010000000000000000000000 &"
bx0000000010000000000000000000000 0
b0 B"
b0 ;"
b11 A"
b11 :"
b0 F"
b0 )"
b110101 E"
b110101 ("
b0 W"
b0 -
b110101001001111110110000011 V"
b110101001001111110110000011 )
0#
0!
#55000
b100 ]
b100 '
b100 d
b100 U
b100 Z
b11 ^
b11 [
b11 _
1#
1!
#60000
b110101 u
b110101 B
b110101 q
b110101 P
b110101 k
b110101 t
b0 /
b0 ["
b0 g"
b10 .
b10 X"
b10 o"
b10 p"
b110101000 (
b110101000 v"
b0 N
b0 ^"
b0 +
b0 Z"
b100 ~
b110101xxxxxxxx0000000100000000000000000000000 &
b110101xxxxxxxx0000000100000000000000000000000 %"
b100 F
b100 g
b1 ?
b1 M
b1 j
b1 s
b110101 @
b110101000000000000011000000 %
b110101000000000000011000000 U"
b11 E
b11 *"
b11 G
b11 X
b11 \
b11 3
b11 +"
b100 <
b100 n
b100 {
b0 x"
b0 A
b110101001 w"
b110101001 >
b0 m"
b0 b"
b110101 l"
b110101 a"
b0 i"
b0 d"
b11 h"
b11 c"
b110101000000000000010000000 V"
b110101000000000000010000000 )
b1 B"
b1 ;"
b0 A"
b0 :"
bx0000000011000000000000000000000 &"
bx0000000011000000000000000000000 0
b100 e
b100 :
0#
0!
#65000
b1000001010011 `
b1000001010011 Q
b1000001010011 Y
b101 ]
b10000010100110000000101 '
b10000010100110000000101 d
b101 U
b101 Z
b100 ^
b100 [
b100 _
1#
1!
#70000
b1010011 J
b1010011 h
b1010011 w
b10011 }
b11 !"
b11 L
b11 i
b100 y
b100 V
b100 o
b100 |
b1010011 z
b11000 ~
b110101xxxxxxxx0000011000000001000101001101100 &
b110101xxxxxxxx0000011000000001000101001101100 %"
b11000 F
b11000 g
b110101 ="
b11 .
b11 X"
b11 o"
b11 p"
b1000001010011 ;
b1000001010011 l
b1000001010011 x
b101 <
b101 n
b101 {
b110101 1
b110101 ."
b110101000000000000100000000 %
b110101000000000000100000000 U"
b100 E
b100 *"
b100 G
b100 X
b100 \
b100 3
b100 +"
b0 ?
b0 M
b0 j
b0 s
b10000010100110000000101 e
b10000010100110000000101 :
b110101xxxxxxxx0000000100000000000000000000000 &"
b110101xxxxxxxx0000000100000000000000000000000 0
b110101000000000000011000000 V"
b110101000000000000011000000 )
b1 i"
b1 d"
b0 h"
b0 c"
b110101000 w"
b110101000 >
0#
0!
#75000
b0 `
b0 Q
b0 Y
b110 ]
b110 '
b110 d
b110 U
b110 Z
b101 ^
b101 [
b101 _
1#
1!
#80000
0M"
0N"
bx0000 J"
b1010011 R"
b1010011 D
b1010011 6"
b1010011 D"
b0 J
b0 h
b0 w
b0 }
b0 !"
b0 L
b0 i
b100 .
b100 X"
b100 o"
b100 p"
b1010011 1"
b1010011 H"
b1010011 2"
b1010011 I"
b0 y
b0 V
b0 o
b0 |
b0 z
b110 ~
b110101xxxxxxxx0000000110000000000000000000000 &
b110101xxxxxxxx0000000110000000000000000000000 %"
b110 F
b110 g
b11000 E
b11000 *"
b11000 G
b11000 X
b11000 \
b11000 3
b11000 +"
b100 R
b100 8"
b100 7
b100 0"
b100 @"
b100 G"
b1010011 4
b1010011 3"
b1010011011000000011000000100 %
b1010011011000000011000000100 U"
b11 K
b11 7"
b11 5
b11 4"
b0 ;
b0 l
b0 x
b110 <
b110 n
b110 {
b110101000000000000100000000 V"
b110101000000000000100000000 )
b110101xxxxxxxx0000011000000001000101001101100 &"
b110101xxxxxxxx0000011000000001000101001101100 0
b110 e
b110 :
0#
0!
#85000
b111 ]
b111 '
b111 d
b111 U
b111 Z
b110 ^
b110 [
b110 _
1#
1!
#90000
b1010011 e"
b1010011 n"
b1010011 O
b1010011 `"
b1010011 k"
b111 ~
b110101xxxxxxxx0000000111000000000000000000000 &
b110101xxxxxxxx0000000111000000000000000000000 %"
b111 F
b111 g
b0 1"
b0 H"
b0 2"
b0 I"
b100 /
b100 ["
b100 g"
b11000 .
b11000 X"
b11000 o"
b11000 p"
b1010011011 (
b1010011011 v"
b11 N
b11 ^"
b11 +
b11 Z"
b1010011 *
b1010011 Y"
b111 <
b111 n
b111 {
b110 E
b110 *"
b110 G
b110 X
b110 \
b110 3
b110 +"
b0 R
b0 8"
b0 7
b0 0"
b0 @"
b0 G"
b0 4
b0 3"
b1010011000000000000110000000 %
b1010011000000000000110000000 U"
b0 K
b0 7"
b0 5
b0 4"
b111 e
b111 :
b110101xxxxxxxx0000000110000000000000000000000 &"
b110101xxxxxxxx0000000110000000000000000000000 0
b0 B"
b0 ;"
b100 A"
b100 :"
b1010011 E"
b1010011 ("
b1010011011000000011000000100 V"
b1010011011000000011000000100 )
0#
0!
#95000
b1000 ]
b1000 '
b1000 d
b1000 U
b1000 Z
b111 ^
b111 [
b111 _
1#
1!
#100000
b1010011 v
b1010011 C
b1010011 r
b1010011 P
b1010011 k
b1010011 t
b0 /
b0 ["
b0 g"
b110 .
b110 X"
b110 o"
b110 p"
b1010011000 (
b1010011000 v"
b0 N
b0 ^"
b0 +
b0 Z"
b1000 ~
b110101010100110000001000000000000000000000000 &
b110101010100110000001000000000000000000000000 %"
b1000 F
b1000 g
b11 ?
b11 M
b11 j
b11 s
b1010011 @
b1010011000000000000111000000 %
b1010011000000000000111000000 U"
b111 E
b111 *"
b111 G
b111 X
b111 \
b111 3
b111 +"
b1000 <
b1000 n
b1000 {
b1010011011 w"
b1010011011 >
b1010011 l"
b1010011 a"
b0 i"
b0 d"
b100 h"
b100 c"
b1010011000000000000110000000 V"
b1010011000000000000110000000 )
b1 B"
b1 ;"
b0 A"
b0 :"
b110101xxxxxxxx0000000111000000000000000000000 &"
b110101xxxxxxxx0000000111000000000000000000000 0
b1000 e
b1000 :
0#
0!
#105000
b11110000000000 `
b11110000000000 Q
b11110000000000 Y
b1001 ]
b111100000000000000001001 '
b111100000000000000001001 d
b1001 U
b1001 Z
b1000 ^
b1000 [
b1000 _
1#
1!
#110000
b11 #"
b11 W
b11 p
b10 !"
b10 L
b10 i
b1111 y
b1111 V
b1111 o
b1111 |
b1001 ~
b110101010100110000001001110011110000000001000 &
b110101010100110000001001110011110000000001000 %"
b1001 F
b1001 g
b1010011 >"
b111 .
b111 X"
b111 o"
b111 p"
b11110000000000 ;
b11110000000000 l
b11110000000000 x
b1001 <
b1001 n
b1001 {
b1010011 2
b1010011 /"
b1010011000000000001000000000 %
b1010011000000000001000000000 U"
b1000 E
b1000 *"
b1000 G
b1000 X
b1000 \
b1000 3
b1000 +"
b0 ?
b0 M
b0 j
b0 s
b111100000000000000001001 e
b111100000000000000001001 :
b110101010100110000001000000000000000000000000 &"
b110101010100110000001000000000000000000000000 0
b1010011000000000000111000000 V"
b1010011000000000000111000000 )
b1 i"
b1 d"
b0 h"
b0 c"
b1010011000 w"
b1010011000 >
0#
0!
#115000
b0 `
b0 Q
b0 Y
b1010 ]
b1010 '
b1010 d
b1010 U
b1010 Z
b1001 ^
b1001 [
b1001 _
1#
1!
#120000
b10001 R"
b10001 D
b10001 6"
b10001 D"
b110101 1"
b110101 H"
b1010011 2"
b1010011 I"
b0 #"
b0 W
b0 p
b0 !"
b0 L
b0 i
b1000 .
b1000 X"
b1000 o"
b1000 p"
b0 y
b0 V
b0 o
b0 |
b1010 ~
b110101010100110000001010000000000000000000000 &
b110101010100110000001010000000000000000000000 %"
b1010 F
b1010 g
b1001 E
b1001 *"
b1001 G
b1001 X
b1001 \
b1001 3
b1001 +"
b11 8
b11 <"
b1111 R
b1111 8"
b1111 7
b1111 0"
b1111 @"
b1111 G"
b10001010000000001001001111 %
b10001010000000001001001111 U"
b10 K
b10 7"
b10 5
b10 4"
b0 ;
b0 l
b0 x
b1010 <
b1010 n
b1010 {
b1010011000000000001000000000 V"
b1010011000000000001000000000 )
b110101010100110000001001110011110000000001000 &"
b110101010100110000001001110011110000000001000 0
b1010 e
b1010 :
0#
0!
#125000
b1011 ]
b1011 '
b1011 d
b1011 U
b1011 Z
b1010 ^
b1010 [
b1010 _
1#
1!
#130000
b110101 ="
0,"
b0 1"
b0 H"
b0 2"
b0 I"
b10001 e"
b10001 n"
b10001 O
b10001 `"
b10001 k"
b1011 ~
b110101010100110000001011000000000000000000000 &
b110101010100110000001011000000000000000000000 %"
b1011 F
b1011 g
b1111 /
b1111 ["
b1111 g"
b1001 .
b1001 X"
b1001 o"
b1001 p"
b10001010 (
b10001010 v"
b10 N
b10 ^"
b10 +
b10 Z"
b10001 *
b10001 Y"
b1011 <
b1011 n
b1011 {
b1010 E
b1010 *"
b1010 G
b1010 X
b1010 \
b1010 3
b1010 +"
b0 8
b0 <"
b0 R
b0 8"
b0 7
b0 0"
b0 @"
b0 G"
b10001000000000001010000000 %
b10001000000000001010000000 U"
b0 K
b0 7"
b0 5
b0 4"
b1011 e
b1011 :
b110101010100110000001010000000000000000000000 &"
b110101010100110000001010000000000000000000000 0
b0 B"
b0 ;"
b1111 A"
b1111 :"
b10001 E"
b10001 ("
b10001010000000001001001111 V"
b10001010000000001001001111 )
0#
0!
#135000
b1100 ]
b1100 '
b1100 d
b1100 U
b1100 Z
b1011 ^
b1011 [
b1011 _
1#
1!
#140000
b10001 u
b10001 B
b10001 q
b10001 P
b10001 k
b10001 t
b0 /
b0 ["
b0 g"
b1010 .
b1010 X"
b1010 o"
b1010 p"
b10001000 (
b10001000 v"
b0 N
b0 ^"
b0 +
b0 Z"
b1100 ~
b10001010100110000001100000000000000000000000 &
b10001010100110000001100000000000000000000000 %"
b1100 F
b1100 g
b10 ?
b10 M
b10 j
b10 s
b10001 @
b10001000000000001011000000 %
b10001000000000001011000000 U"
b1011 E
b1011 *"
b1011 G
b1011 X
b1011 \
b1011 3
b1011 +"
b1100 <
b1100 n
b1100 {
b10001010 w"
b10001010 >
b10001 l"
b10001 a"
b0 i"
b0 d"
b1111 h"
b1111 c"
b10001000000000001010000000 V"
b10001000000000001010000000 )
b1 B"
b1 ;"
b0 A"
b0 :"
b110101010100110000001011000000000000000000000 &"
b110101010100110000001011000000000000000000000 0
b1100 e
b1100 :
0#
0!
#145000
b11010000010001 `
b11010000010001 Q
b11010000010001 Y
b1101 ]
b110100000100010000001101 '
b110100000100010000001101 d
b1101 U
b1101 Z
b1100 ^
b1100 [
b1100 _
1#
1!
#150000
b10001 J
b10001 h
b10001 w
b10001 }
b10 #"
b10 W
b10 p
b10 !"
b10 L
b10 i
b1101 y
b1101 V
b1101 o
b1101 |
b10001 z
b11110 ~
b10001010100110000011110100011010001000101000 &
b10001010100110000011110100011010001000101000 %"
b11110 F
b11110 g
b10001 ="
b1011 .
b1011 X"
b1011 o"
b1011 p"
b11010000010001 ;
b11010000010001 l
b11010000010001 x
b1101 <
b1101 n
b1101 {
b10001 1
b10001 ."
b10001000000000001100000000 %
b10001000000000001100000000 U"
b1100 E
b1100 *"
b1100 G
b1100 X
b1100 \
b1100 3
b1100 +"
b0 ?
b0 M
b0 j
b0 s
b110100000100010000001101 e
b110100000100010000001101 :
b10001010100110000001100000000000000000000000 &"
b10001010100110000001100000000000000000000000 0
b10001000000000001011000000 V"
b10001000000000001011000000 )
b1 i"
b1 d"
b0 h"
b0 c"
b10001000 w"
b10001000 >
0#
0!
#155000
b0 `
b0 Q
b0 Y
b1110 ]
b1110 '
b1110 d
b1110 U
b1110 Z
b1101 ^
b1101 [
b1101 _
1#
1!
#160000
1L"
0O"
b0x1000 J"
b0 R"
b0 D
b0 6"
b0 D"
b0 J
b0 h
b0 w
b0 }
b0 #"
b0 W
b0 p
b0 !"
b0 L
b0 i
b1100 .
b1100 X"
b1100 o"
b1100 p"
b10001 1"
b10001 H"
b10001 2"
b10001 I"
b0 y
b0 V
b0 o
b0 |
b0 z
b1110 ~
b10001010100110000001110000000000000000000000 &
b10001010100110000001110000000000000000000000 %"
b1110 F
b1110 g
b11110 E
b11110 *"
b11110 G
b11110 X
b11110 \
b11110 3
b11110 +"
b10 8
b10 <"
b1101 R
b1101 8"
b1101 7
b1101 0"
b1101 @"
b1101 G"
b10001 4
b10001 3"
b10000000011110001101 %
b10000000011110001101 U"
b10 K
b10 7"
b10 5
b10 4"
b0 ;
b0 l
b0 x
b1110 <
b1110 n
b1110 {
b10001000000000001100000000 V"
b10001000000000001100000000 )
b10001010100110000011110100011010001000101000 &"
b10001010100110000011110100011010001000101000 0
b1110 e
b1110 :
0#
0!
#165000
b1111 ]
b1111 '
b1111 d
b1111 U
b1111 Z
b1110 ^
b1110 [
b1110 _
1#
1!
