tarea4/pruebaPIPE.vcd
$date
	Tue Jun 30 02:13:07 2015
$end
$version
	Icarus Verilog
$end
$timescale
	1ps
$end
$scope module tester $end
$var wire 1 ! clk $end
$var wire 1 " reset $end
$scope module test $end
$var reg 1 # clk $end
$var reg 1 $ reset $end
$upscope $end
$scope module pegado $end
$var wire 1 ! clk $end
$var wire 37 % inputReg_EX_MEM [36:0] $end
$var wire 47 & inputReg_ID_EX [46:0] $end
$var wire 26 ' inputReg_IF_ID [25:0] $end
$var wire 11 ( inputReg_MEM_WB [10:0] $end
$var wire 37 ) outReg_EX_MEM [36:0] $end
$var wire 8 * outReg_EX_MEM_AluResult_EX [7:0] $end
$var wire 3 + outReg_EX_MEM_ControlAcum_EX [2:0] $end
$var wire 2 , outReg_EX_MEM_MemControl_EX [1:0] $end
$var wire 37 - outReg_EX_MEM_bar [36:0] $end
$var wire 10 . outReg_EX_MEM_wBrDir_EX [9:0] $end
$var wire 6 / outReg_EX_MEM_wInstr_EX [5:0] $end
$var wire 47 0 outReg_ID_EX [46:0] $end
$var wire 8 1 outReg_ID_EX_AcumA_ID [7:0] $end
$var wire 8 2 outReg_ID_EX_AcumB_ID [7:0] $end
$var wire 10 3 outReg_ID_EX_BrDir_ID [9:0] $end
$var wire 8 4 outReg_ID_EX_Constant_ID [7:0] $end
$var wire 3 5 outReg_ID_EX_ControlAcum_ID [2:0] $end
$var wire 2 6 outReg_ID_EX_MemControl_ID [1:0] $end
$var wire 6 7 outReg_ID_EX_Operation_ID [5:0] $end
$var wire 2 8 outReg_ID_EX_OutSelMux_ID [1:0] $end
$var wire 47 9 outReg_ID_EX_bar [46:0] $end
$var wire 26 : outReg_IF_ID [25:0] $end
$var wire 16 ; outReg_IF_ID_FetchedInstr [15:0] $end
$var wire 10 < outReg_IF_ID_NewPC [9:0] $end
$var wire 26 = outReg_IF_ID_bar [25:0] $end
$var wire 11 > outReg_MEM_WB [10:0] $end
$var wire 3 ? outReg_MEM_WB_ControlAcum_MEM [2:0] $end
$var wire 16 @ outReg_MEM_WB_DataToWB_MEM [15:0] $end
$var wire 11 A outReg_MEM_WB_bar [10:0] $end
$var wire 1 B regEnable $end
$var wire 1 " reset $end
$var wire 8 C wAcumA_ID [7:0] $end
$var wire 8 D wAcumB_ID [7:0] $end
$var wire 8 E wAluResult_EX [7:0] $end
$var wire 10 F wBrDir_EX [9:0] $end
$var wire 10 G wBrDir_ID [9:0] $end
$var wire 10 H wBrDir_IF [9:0] $end
$var wire 1 I wBrTaken_EX $end
$var wire 1 J wBrTaken_IF $end
$var wire 8 K wConstant_ID [7:0] $end
$var wire 3 L wControlAcum_EX [2:0] $end
$var wire 3 M wControlAcum_ID [2:0] $end
$var wire 3 N wControlAcum_ID_WB [2:0] $end
$var wire 3 O wControlAcum_MEM [2:0] $end
$var wire 8 P wDataToWB_MEM [7:0] $end
$var wire 8 Q wData_WB [7:0] $end
$var wire 16 R wFetchedInst_IF [15:0] $end
$var wire 6 S wInstr_EX [5:0] $end
$var wire 2 T wMemControl_EX [1:0] $end
$var wire 2 U wMemControl_ID [1:0] $end
$var wire 10 V wNewPC_IF [9:0] $end
$var wire 6 W wOperation_ID [5:0] $end
$var wire 2 X wOutSelMux_ID [1:0] $end
$var wire 1 Y wStall $end
$scope module etapa1 $end
$var wire 1 ! clk $end
$var wire 1 B enable $end
$var wire 10 Z iBr_dir [9:0] $end
$var wire 1 J iBr_taken $end
$var wire 16 [ oFetchedInst [15:0] $end
$var wire 10 \ oNew_pc [9:0] $end
$var wire 1 " reset $end
$var wire 10 ] wPc_pointer [9:0] $end
$scope module pcIF $end
$var wire 1 ! clk $end
$var wire 1 B enable $end
$var wire 10 ^ iBr_dir [9:0] $end
$var wire 1 J iBr_taken $end
$var wire 1 " reset $end
$var reg 10 _ oNew_pc [9:0] $end
$var reg 10 ` oPc_pointer [9:0] $end
$upscope $end
$scope module instructMem $end
$var wire 10 a iDir [9:0] $end
$var reg 16 b oInstruc [15:0] $end
$var reg 10 c rClear [9:0] $end
$upscope $end
$upscope $end
$scope module registro_IF_ID $end
$var wire 1 ! clk $end
$var wire 1 d clr $end
$var wire 1 B enable $end
$var wire 26 e in [25:0] $end
$var reg 26 f out [25:0] $end
$var reg 26 g out_bar [25:0] $end
$upscope $end
$scope module etapa2 $end
$var wire 10 h branchDir [9:0] $end
$var wire 8 i constant [7:0] $end
$var wire 3 j controlAcum_ID [2:0] $end
$var wire 3 k controlAcum_WB [2:0] $end
$var wire 8 l data [7:0] $end
$var wire 16 m instr [15:0] $end
$var wire 2 n memControl [1:0] $end
$var wire 10 o newPC [9:0] $end
$var wire 6 p operation [5:0] $end
$var wire 2 q outSelMux [1:0] $end
$var wire 8 r salidaAcumA [7:0] $end
$var wire 8 s salidaAcumB [7:0] $end
$scope module acumuladores $end
$var wire 3 t control [2:0] $end
$var wire 8 u data [7:0] $end
$var reg 8 v salidaAcumA [7:0] $end
$var reg 8 w salidaAcumB [7:0] $end
$upscope $end
$scope module decodificador $end
$var wire 8 x constant [7:0] $end
$var wire 16 y instr [15:0] $end
$var wire 6 z instrDecod [5:0] $end
$var wire 10 { instrInfo [9:0] $end
$var wire 10 | newPC [9:0] $end
$var wire 6 } operation [5:0] $end
$var wire 6 ~ saltoRel [5:0] $end
$var reg 10 !" branchDir [9:0] $end
$var reg 3 "" controlAcum [2:0] $end
$var reg 2 #" memControl [1:0] $end
$var reg 2 $" outSelMux [1:0] $end
$upscope $end
$upscope $end
$scope module registro_ID_EX $end
$var wire 1 ! clk $end
$var wire 1 " clr $end
$var wire 1 B enable $end
$var wire 47 %" in [46:0] $end
$var reg 47 &" out [46:0] $end
$var reg 47 '" out_bar [46:0] $end
$upscope $end
$scope module etapa3 $end
$var wire 8 (" ALU_OP_loadA [7:0] $end
$var wire 8 )" ALU_OP_loadB [7:0] $end
$var wire 8 *" HZDresult [7:0] $end
$var wire 8 +" HZDresult_bar [7:0] $end
$var wire 1 ! aluClk $end
$var wire 1 " aluReset $end
$var wire 10 ," branchDir_EX [9:0] $end
$var wire 10 -" branchDir_ID [9:0] $end
$var wire 1 I branchTaken $end
$var wire 1 ." exeHazardA $end
$var wire 1 /" exeHazardB $end
$var wire 8 0" iAcumA [7:0] $end
$var wire 8 1" iAcumB [7:0] $end
$var wire 6 2" iAluInstSel [5:0] $end
$var wire 8 3" iAluOper1 [7:0] $end
$var wire 8 4" iAluOper2 [7:0] $end
$var wire 8 5" iConst [7:0] $end
$var wire 3 6" iControlAcum_ID [2:0] $end
$var wire 2 7" iMemControl_ID [1:0] $end
$var wire 8 8" loadMemHzd [7:0] $end
$var wire 1 9" loadhazardA $end
$var wire 1 :" loadhazardB $end
$var wire 8 ;" oAluData [7:0] $end
$var wire 3 <" oControlAcum_EX [2:0] $end
$var wire 6 =" oInstr_EX [5:0] $end
$var wire 2 >" oMemControl_EX [1:0] $end
$var wire 6 ?" oldInstr_EX [5:0] $end
$var wire 6 @" oldInstr_EX_bar [5:0] $end
$var wire 1 A" oldStall $end
$var wire 1 B" oldStall_bar $end
$var wire 2 C" outSelMuxExe [1:0] $end
$var wire 8 D" realAluOp1 [7:0] $end
$var wire 8 E" realAluOp2 [7:0] $end
$var reg 1 F" stall $end
$scope module regEXEHazards $end
$var wire 1 ! clk $end
$var wire 1 " clr $end
$var wire 1 G" enable $end
$var wire 6 H" in [5:0] $end
$var reg 6 I" out [5:0] $end
$var reg 6 J" out_bar [5:0] $end
$upscope $end
$scope module regRESHazard $end
$var wire 1 ! clk $end
$var wire 1 " clr $end
$var wire 1 K" enable $end
$var wire 8 L" in [7:0] $end
$var reg 8 M" out [7:0] $end
$var reg 8 N" out_bar [7:0] $end
$upscope $end
$scope module regStall $end
$var wire 1 ! clk $end
$var wire 1 " clr $end
$var wire 1 O" enable $end
$var wire 1 Y in $end
$var reg 1 P" out $end
$var reg 1 Q" out_bar $end
$upscope $end
$scope module aluEx $end
$var wire 6 R" iAluInstSel [5:0] $end
$var wire 8 S" iAluOper1 [7:0] $end
$var wire 8 T" iAluOper2 [7:0] $end
$var wire 6 U" sReg [5:0] $end
$var reg 1 V" BAN $end
$var reg 1 W" BAZ $end
$var reg 1 X" BBN $end
$var reg 1 Y" BBZ $end
$var reg 1 Z" BCA $end
$var reg 1 [" BCB $end
$var reg 1 \" branchTaken $end
$var reg 8 ]" oAluData [7:0] $end
$upscope $end
$upscope $end
$scope module registro_EX_MEM $end
$var wire 1 ! clk $end
$var wire 1 ^" clr $end
$var wire 1 B enable $end
$var wire 37 _" in [36:0] $end
$var reg 37 `" out [36:0] $end
$var reg 37 a" out_bar [36:0] $end
$upscope $end
$scope module etapa4 $end
$var wire 10 b" iAddresReadNWrite [9:0] $end
$var wire 8 c" iAluDataEX [7:0] $end
$var wire 3 d" iControlAcum_EX [2:0] $end
$var wire 6 e" iInstr_EX [5:0] $end
$var wire 2 f" iOutMemSelect [1:0] $end
$var wire 1 ! memClk $end
$var wire 1 g" memHazard $end
$var wire 1 " memReset $end
$var wire 3 h" oControlAcum_MEM [2:0] $end
$var wire 8 i" oDataRamRead [7:0] $end
$var wire 8 j" oDataToWB [7:0] $end
$var wire 8 k" oldDataToWB [7:0] $end
$var wire 8 l" oldDataToWB_bar [7:0] $end
$var wire 6 m" oldInstr_MEM [5:0] $end
$var wire 6 n" oldInstr_MEM_bar [5:0] $end
$var wire 8 o" wDataMemIn [7:0] $end
$scope module regMemHazard $end
$var wire 1 ! clk $end
$var wire 1 " clr $end
$var wire 1 p" enable $end
$var wire 6 q" in [5:0] $end
$var reg 6 r" out [5:0] $end
$var reg 6 s" out_bar [5:0] $end
$upscope $end
$scope module regDataToWBHazard $end
$var wire 1 ! clk $end
$var wire 1 " clr $end
$var wire 1 t" enable $end
$var wire 8 u" in [7:0] $end
$var reg 8 v" out [7:0] $end
$var reg 8 w" out_bar [7:0] $end
$upscope $end
$scope module DATA_MEM $end
$var wire 1 ! clk $end
$var wire 8 x" iDataMemIn [7:0] $end
$var wire 10 y" iReadDataAddress [9:0] $end
$var wire 10 z" iWriteDataAddress [9:0] $end
$var wire 1 {" iWriteDataEnable $end
$var wire 1 |" memEnable $end
$var reg 8 }" oDataMemOut [7:0] $end
$upscope $end
$upscope $end
$scope module registro_MEM_WB $end
$var wire 1 ! clk $end
$var wire 1 ~" clr $end
$var wire 1 !# enable $end
$var wire 11 "# in [10:0] $end
$var reg 11 ## out [10:0] $end
$var reg 11 $# out_bar [10:0] $end
$upscope $end
$upscope $end
$upscope $end
$enddefinitions $end
#0
$dumpvars
bx $#
bx ##
bx "#
1!#
0~"
bx }"
x|"
x{"
bx z"
bx y"
bx x"
bx w"
bx v"
bx u"
1t"
bx s"
bx r"
bx q"
1p"
bx o"
bx n"
bx m"
bx l"
bx k"
bx j"
bx i"
bx h"
xg"
bx f"
bx e"
bx d"
bx c"
bx b"
bx a"
bx `"
b0xxxxxxxxxxxxxxxxxxxxx _"
0^"
b0 ]"
0\"
x["
xZ"
xY"
xX"
xW"
xV"
bx U"
bx T"
bx S"
bx R"
xQ"
xP"
1O"
bx N"
bx M"
b0 L"
1K"
bx J"
bx I"
bx H"
1G"
0F"
bx E"
bx D"
bx C"
xB"
xA"
bx @"
bx ?"
bx >"
bx ="
bx <"
b0 ;"
x:"
x9"
bx 8"
bx 7"
bx 6"
bx 5"
bx 4"
bx 3"
bx 2"
bx 1"
bx 0"
x/"
x."
bx -"
bx ,"
bx +"
bx *"
bx )"
bx ("
bx '"
bx &"
b0xxxxxxxxxxxxxxxxxxxxxxxxxxxxxxx %"
bx $"
bx #"
bx ""
bx !"
bx ~
bx }
bx |
bx {
bx z
bx y
bx x
b0 w
b0 v
bx u
bx t
b0 s
b0 r
bx q
bx p
bx o
bx n
bx m
bx l
bx k
bx j
bx i
bx h
bx g
bx f
b0xxxxxxxxxx e
0d
b0 c
b0 b
bx a
bx `
bx _
bx ^
bx ]
bx \
b0 [
bx Z
0Y
bx X
bx W
bx V
bx U
bx T
bx S
b0 R
bx Q
bx P
bx O
bx N
bx M
bx L
bx K
0J
0I
bx H
bx G
bx F
b0 E
b0 D
b0 C
1B
bx A
b0xxxxxxxx @
bx ?
bx >
bx =
bx <
bx ;
bx :
bx 9
bx 8
bx 7
bx 6
bx 5
bx 4
bx 3
bx 2
bx 1
bx 0
bx /
bx .
bx -
bx ,
bx +
bx *
bx )
bx (
b0xxxxxxxxxx '
b0xxxxxxxxxxxxxxxxxxxxxxxxxxxxxxx &
b0xxxxxxxxxxxxxxxxxxxxx %
0$
0#
0"
0!
$end
#5000
b0 !"
b0 G
b0 h
b0 P
b0 8"
b0 j"
b0 u"
0/"
0."
0g"
b0 K
b0 i
b0 x
b0 ~
b0 #"
b0 U
b0 n
b0 $"
b0 X
b0 q
b0 ""
b0 M
b0 j
0|"
0{"
b0 o"
b0 x"
b0 ("
b0 )"
b0 3"
b0 S"
b0 4"
b0 T"
0:"
09"
b0 z
b0 &
b0 %"
b0 W
b0 p
b0 }
b0 {
b0 /
b0 e"
b0 q"
b0 .
b0 b"
b0 y"
b0 z"
b0 ,
b0 f"
b0 (
b0 "#
b0 O
b0 h"
b0 +
b0 d"
b0 *
b0 c"
b0 Q
b0 l
b0 u
b0 D"
b0 E"
b0 ;
b0 m
b0 y
b0 <
b0 o
b0 |
b0 ?
b0 N
b0 k
b0 t
b0 @
b0 1
b0 0"
b0 2
b0 1"
b0 F
b0 ,"
b0 H
b0 Z
b0 ^
b0 3
b0 -"
b0 8
b0 C"
b0 S
b0 ="
b0 7
b0 2"
b0 H"
b0 R"
b0 4
b0 5"
b0 L
b0 <"
b0 5
b0 6"
b0 %
b0 _"
b0 T
b0 >"
b0 6
b0 7"
b1 g
b1 =
b0 f
b0 :
b1 a"
b1 -
b0 `"
b0 )
b1 $#
b1 A
b0 ##
b0 >
b1 '"
b1 9
b0 &"
b0 0
b1 J"
b1 @"
b0 I"
b0 ?"
b1 N"
b1 +"
b0 M"
b0 *"
1Q"
1B"
0P"
0A"
b1 s"
b1 n"
b0 r"
b0 m"
b1 w"
b1 l"
b0 v"
b0 k"
b100000000101 b
b100000000101xxxxxxxxxx '
b100000000101xxxxxxxxxx e
b100000000101 R
b100000000101 [
b0 `
b0 ]
b0 a
1d
1^"
1~"
1#
1!
1$
1"
#10000
0#
0!
#15000
1#
1!
#20000
0#
0!
#25000
1#
1!
#28000
0d
0^"
0~"
0$
0"
#30000
b101 K
b101 i
b101 x
b101 ~
b1 ""
b1 M
b1 j
b10 z
b10 W
b10 p
b10 }
b101 {
bx !"
b0xxxxxxxxxx000000100000010100100 &
b0xxxxxxxxxx000000100000010100100 %"
bx G
bx h
b100000000101 ;
b100000000101 m
b100000000101 y
bx <
bx o
bx |
b0 g
b0 =
b100000000101xxxxxxxxxx f
b100000000101xxxxxxxxxx :
0#
0!
#35000
b110000000111 b
b110000000111 R
b110000000111 [
b10 _
b1100000001110000000010 '
b1100000001110000000010 e
b10 V
b10 \
b1 `
b1 ]
b1 a
1#
1!
#40000
0V"
0W"
bx0x0x U"
b101 ]"
b101 E
b101 ;"
b101 L"
b111 K
b111 i
b111 x
b111 ~
b11 ""
b11 M
b11 j
b101 3"
b101 S"
b101 4"
b101 T"
b11 z
b11 W
b11 p
b11 }
b111 {
b1001 !"
b1001000000110000011101100 &
b1001000000110000011101100 %"
b1001 G
b1001 h
bx F
bx ,"
bx H
bx Z
bx ^
bx 3
bx -"
b10 S
b10 ="
b10 7
b10 2"
b10 H"
b10 R"
b101 4
b101 5"
b10100100xxxxxxxxxx000010 %
b10100100xxxxxxxxxx000010 _"
b1 L
b1 <"
b1 5
b1 6"
b110000000111 ;
b110000000111 m
b110000000111 y
b10 <
b10 o
b10 |
b0 '"
b0 9
b0xxxxxxxxxx000000100000010100100 &"
b0xxxxxxxxxx000000100000010100100 0
b1100000001110000000010 f
b1100000001110000000010 :
0#
0!
#45000
b0 b
b0 R
b0 [
b11 _
b11 '
b11 e
b11 V
b11 \
b10 `
b10 ]
b10 a
1#
1!
#50000
0V"
0X"
0W"
0Y"
bx0000 U"
b111 ]"
b111 E
b111 ;"
b111 L"
b0 K
b0 i
b0 x
b0 ~
b0 ""
b0 M
b0 j
b101 o"
b101 x"
b101 P
b101 8"
b101 j"
b101 u"
b0 z
b0 W
b0 p
b0 }
b0 {
b11 !"
b11000000000000000000000 &
b11000000000000000000000 %"
b11 G
b11 h
b111 3"
b111 S"
b111 4"
b111 T"
b10 /
b10 e"
b10 q"
bx .
bx b"
bx y"
bx z"
b101001 (
b101001 "#
b1 O
b1 h"
b1 +
b1 d"
b101 *
b101 c"
b0 ;
b0 m
b0 y
b11 <
b11 o
b11 |
b1001 F
b1001 ,"
b1001 H
b1001 Z
b1001 ^
b1001 3
b1001 -"
b11 S
b11 ="
b11 7
b11 2"
b11 H"
b11 R"
b111 4
b111 5"
b111011000000001001000011 %
b111011000000001001000011 _"
b11 L
b11 <"
b11 5
b11 6"
b11 f
b11 :
b1001000000110000011101100 &"
b1001000000110000011101100 0
b0 J"
b0 @"
b10 I"
b10 ?"
b0 N"
b0 +"
b101 M"
b101 *"
b0 a"
b0 -
b10100100xxxxxxxxxx000010 `"
b10100100xxxxxxxxxx000010 )
0#
0!
#55000
b100 _
b100 '
b100 e
b100 V
b100 \
b11 `
b11 ]
b11 a
1#
1!
#60000
b0 ]"
b0 E
b0 ;"
b0 L"
b111 o"
b111 x"
b111 P
b111 8"
b111 j"
b111 u"
b101 v
b101 C
b101 r
b101 Q
b101 l
b101 u
b11 /
b11 e"
b11 q"
b1001 .
b1001 b"
b1001 y"
b1001 z"
b111011 (
b111011 "#
b11 O
b11 h"
b11 +
b11 d"
b111 *
b111 c"
b0 3"
b0 S"
b0 4"
b0 T"
b100 !"
b101000000000000000100000000000000000000000 &
b101000000000000000100000000000000000000000 %"
b100 G
b100 h
b1 ?
b1 N
b1 k
b1 t
b101 @
b11 F
b11 ,"
b11 H
b11 Z
b11 ^
b11 3
b11 -"
b0 S
b0 ="
b0 7
b0 2"
b0 H"
b0 R"
b0 4
b0 5"
b11000000 %
b11000000 _"
b0 L
b0 <"
b0 5
b0 6"
b100 <
b100 o
b100 |
b0 $#
b0 A
b101001 ##
b101001 >
b0 w"
b0 l"
b101 v"
b101 k"
b0 s"
b0 n"
b10 r"
b10 m"
b111011000000001001000011 `"
b111011000000001001000011 )
b111 M"
b111 *"
b11 I"
b11 ?"
b11000000000000000000000 &"
b11000000000000000000000 0
b100 f
b100 :
0#
0!
#65000
b1100000000000 b
b1100000000000 R
b1100000000000 [
b101 _
b11000000000000000000101 '
b11000000000000000000101 e
b101 V
b101 \
b100 `
b100 ]
b100 a
1#
1!
#70000
b11 $"
b11 X
b11 q
b10 ""
b10 M
b10 j
b101 ("
b0 o"
b0 x"
b0 P
b0 8"
b0 j"
b0 u"
b110 z
b110 W
b110 p
b110 }
b101 !"
b101 G
b101 h
b101 D"
b0 /
b0 e"
b0 q"
b11 .
b11 b"
b11 y"
b11 z"
b0 (
b0 "#
b0 O
b0 h"
b0 +
b0 d"
b0 *
b0 c"
b111 w
b101000001110000000101110001100000000001000 &
b101000001110000000101110001100000000001000 %"
b111 D
b111 s
b111 Q
b111 l
b111 u
b1100000000000 ;
b1100000000000 m
b1100000000000 y
b101 <
b101 o
b101 |
b101 1
b101 0"
b100000000 %
b100000000 _"
b100 F
b100 ,"
b100 H
b100 Z
b100 ^
b100 3
b100 -"
b11 ?
b11 N
b11 k
b11 t
b111 @
b11000000000000000000101 f
b11000000000000000000101 :
b101000000000000000100000000000000000000000 &"
b101000000000000000100000000000000000000000 0
b1 J"
b1 @"
b0 I"
b0 ?"
b1 N"
b1 +"
b0 M"
b0 *"
b11000000 `"
b11000000 )
b11 r"
b11 m"
b111 v"
b111 k"
b111011 ##
b111011 >
0#
0!
#75000
b1010001010000 b
b1010001010000 R
b1010001010000 [
b110 _
b10100010100000000000110 '
b10100010100000000000110 e
b110 V
b110 \
b101 `
b101 ]
b101 a
1#
1!
#80000
b1100 ]"
b1100 E
b1100 ;"
b1100 L"
0W"
0Z"
b0x0000 U"
b111 4"
b111 T"
b111 )"
b101 3"
b101 S"
b1010000 K
b1010000 i
b1010000 x
b10000 ~
b11 #"
b11 U
b11 n
b0 ""
b0 M
b0 j
b0 Q
b0 l
b0 u
b100 .
b100 b"
b100 y"
b100 z"
b111 E"
b101 z
b101 W
b101 p
b101 }
b1010000 {
b1010000 !"
b101000001110001010000110001010101000000011 &
b101000001110001010000110001010101000000011 %"
b1010000 G
b1010000 h
b0 ?
b0 N
b0 k
b0 t
b0 @
b111 2
b111 1"
b101 F
b101 ,"
b101 H
b101 Z
b101 ^
b101 3
b101 -"
b11 8
b11 C"
b110 S
b110 ="
b110 7
b110 2"
b110 H"
b110 R"
b1100010000000000101000110 %
b1100010000000000101000110 _"
b10 L
b10 <"
b10 5
b10 6"
b1010001010000 ;
b1010001010000 m
b1010001010000 y
b110 <
b110 o
b110 |
b1 $#
b1 A
b0 ##
b0 >
b1 w"
b1 l"
b0 v"
b0 k"
b1 s"
b1 n"
b0 r"
b0 m"
b100000000 `"
b100000000 )
b101000001110000000101110001100000000001000 &"
b101000001110000000101110001100000000001000 0
b10100010100000000000110 f
b10100010100000000000110 :
0#
0!
#85000
b0 b
b0 R
b0 [
b111 _
b111 '
b111 e
b111 V
b111 \
b110 `
b110 ]
b110 a
1#
1!
#90000
b111 ]"
b111 E
b111 ;"
b111 L"
b101 3"
b101 S"
b101 ("
b101 D"
0."
b0 K
b0 i
b0 x
b0 ~
b0 #"
b0 U
b0 n
b0 $"
b0 X
b0 q
b111 !"
b111 G
b111 h
b1100 o"
b1100 x"
b1100 P
b1100 8"
b1100 j"
b1100 u"
b0 z
b101000001110000000111000000000000000000000 &
b101000001110000000111000000000000000000000 %"
b0 W
b0 p
b0 }
b0 {
b110 /
b110 e"
b110 q"
b101 .
b101 b"
b101 y"
b101 z"
b1100010 (
b1100010 "#
b10 O
b10 h"
b10 +
b10 d"
b1100 *
b1100 c"
b0 ;
b0 m
b0 y
b111 <
b111 o
b111 |
b1010000 F
b1010000 ,"
b1010000 H
b1010000 Z
b1010000 ^
b1010000 3
b1010000 -"
b101 S
b101 ="
b101 7
b101 2"
b101 H"
b101 R"
b1010000 4
b1010000 5"
b0 L
b0 <"
b0 5
b0 6"
b111000110001010000000101 %
b111000110001010000000101 _"
b11 T
b11 >"
b11 6
b11 7"
b111 f
b111 :
b101000001110001010000110001010101000000011 &"
b101000001110001010000110001010101000000011 0
b0 J"
b0 @"
b110 I"
b110 ?"
b0 N"
b0 +"
b1100 M"
b1100 *"
b1100010000000000101000110 `"
b1100010000000000101000110 )
0#
0!
#95000
b1000 _
b1000 '
b1000 e
b1000 V
b1000 \
b111 `
b111 ]
b111 a
1#
1!
#100000
b0 ]"
b0 E
b0 ;"
b0 L"
1|"
1{"
b111 o"
b111 x"
bx P
bx 8"
bx j"
bx u"
b0 3"
b0 S"
b0 4"
b0 T"
b1100 v
b1100 C
b1100 r
b1100 Q
b1100 l
b1100 u
b101 /
b101 e"
b101 q"
b1010000 .
b1010000 b"
b1010000 y"
b1010000 z"
b11 ,
b11 f"
bx000 (
bx000 "#
b0 O
b0 h"
b0 +
b0 d"
b111 *
b111 c"
b1000 !"
b1100000001110000001000000000000000000000000 &
b1100000001110000001000000000000000000000000 %"
b1000 G
b1000 h
b10 ?
b10 N
b10 k
b10 t
b1100 @
b111 F
b111 ,"
b111 H
b111 Z
b111 ^
b111 3
b111 -"
b0 8
b0 C"
b0 S
b0 ="
b0 7
b0 2"
b0 H"
b0 R"
b0 4
b0 5"
b111000000 %
b111000000 _"
b0 T
b0 >"
b0 6
b0 7"
b1000 <
b1000 o
b1000 |
b0 $#
b0 A
b1100010 ##
b1100010 >
b0 w"
b0 l"
b1100 v"
b1100 k"
b0 s"
b0 n"
b110 r"
b110 m"
b111000110001010000000101 `"
b111000110001010000000101 )
b111 M"
b111 *"
b101 I"
b101 ?"
b101000001110000000111000000000000000000000 &"
b101000001110000000111000000000000000000000 0
b1000 f
b1000 :
0#
0!
#105000
b1001 _
b1001 '
b1001 e
b1001 V
b1001 \
b1000 `
b1000 ]
b1000 a
1#
1!
#110000
b0 (
b0 "#
b0 P
b0 8"
b0 j"
b0 u"
b1100 ("
0|"
0{"
b0 o"
b0 x"
b1001 !"
b1100000001110000001001000000000000000000000 &
b1100000001110000001001000000000000000000000 %"
b1001 G
b1001 h
b1100 D"
b0 /
b0 e"
b0 q"
b111 .
b111 b"
b111 y"
b111 z"
b0 ,
b0 f"
b0 *
b0 c"
bx Q
bx l
bx u
b1001 <
b1001 o
b1001 |
b1100 1
b1100 0"
b1000000000 %
b1000000000 _"
b1000 F
b1000 ,"
b1000 H
b1000 Z
b1000 ^
b1000 3
b1000 -"
b0 ?
b0 N
b0 k
b0 t
b0xxxxxxxx @
b1001 f
b1001 :
b1100000001110000001000000000000000000000000 &"
b1100000001110000001000000000000000000000000 0
b1 J"
b1 @"
b0 I"
b0 ?"
b1 N"
b1 +"
b0 M"
b0 *"
b111000000 `"
b111000000 )
b101 r"
b101 m"
b0x w"
b0x l"
bx v"
bx k"
b0x $#
b0x A
bx000 ##
bx000 >
0#
0!
#115000
b1100000000000 b
b1100000000000 R
b1100000000000 [
b1010 _
b11000000000000000001010 '
b11000000000000000001010 e
b1010 V
b1010 \
b1001 `
b1001 ]
b1001 a
1#
1!
#120000
b11 $"
b11 X
b11 q
b10 ""
b10 M
b10 j
b0 Q
b0 l
b0 u
b1000 .
b1000 b"
b1000 y"
b1000 z"
b110 z
b110 W
b110 p
b110 }
b1010 !"
b1100000001110000001010110001100000000001000 &
b1100000001110000001010110001100000000001000 %"
b1010 G
b1010 h
b0 @
b1001000000 %
b1001000000 _"
b1001 F
b1001 ,"
b1001 H
b1001 Z
b1001 ^
b1001 3
b1001 -"
b1100000000000 ;
b1100000000000 m
b1100000000000 y
b1010 <
b1010 o
b1010 |
b1 $#
b1 A
b0 ##
b0 >
b1 w"
b1 l"
b0 v"
b0 k"
b1 s"
b1 n"
b0 r"
b0 m"
b1000000000 `"
b1000000000 )
b1100000001110000001001000000000000000000000 &"
b1100000001110000001001000000000000000000000 0
b11000000000000000001010 f
b11000000000000000001010 :
0#
0!
#125000
b1011 _
b11000000000000000001011 '
b11000000000000000001011 e
b1011 V
b1011 \
b1010 `
b1010 ]
b1010 a
1#
1!
#130000
b10011 ]"
b10011 E
b10011 ;"
b10011 L"
0W"
b0x0000 U"
b1100 3"
b1100 S"
b111 4"
b111 T"
b1011 !"
b1100000001110000001011110001100000000001000 &
b1100000001110000001011110001100000000001000 %"
b1011 G
b1011 h
b1001 .
b1001 b"
b1001 y"
b1001 z"
b1011 <
b1011 o
b1011 |
b1010 F
b1010 ,"
b1010 H
b1010 Z
b1010 ^
b1010 3
b1010 -"
b11 8
b11 C"
b110 S
b110 ="
b110 7
b110 2"
b110 H"
b110 R"
b10011010000000001010000110 %
b10011010000000001010000110 _"
b10 L
b10 <"
b10 5
b10 6"
b11000000000000000001011 f
b11000000000000000001011 :
b1100000001110000001010110001100000000001000 &"
b1100000001110000001010110001100000000001000 0
b1001000000 `"
b1001000000 )
0#
0!
#135000
b1010000 b
b1010000 R
b1010000 [
b1100 _
b10100000000001100 '
b10100000000001100 e
b1100 V
b1100 \
b1011 `
b1011 ]
b1011 a
1#
1!
#140000
b11010 ]"
b11010 E
b11010 ;"
b11010 L"
b10011 3"
b10011 S"
b10011 ("
b10011 D"
1."
b10011 o"
b10011 x"
b10011 P
b10011 8"
b10011 j"
b10011 u"
b1010000 K
b1010000 i
b1010000 x
b10000 ~
b0 $"
b0 X
b0 q
b0 ""
b0 M
b0 j
b110 /
b110 e"
b110 q"
b1010 .
b1010 b"
b1010 y"
b1010 z"
b10011010 (
b10011010 "#
b10 O
b10 h"
b10 +
b10 d"
b10011 *
b10011 c"
b0 z
b0 W
b0 p
b0 }
b1010000 {
b11100 !"
b1100000001110000011100000000000101000000000 &
b1100000001110000011100000000000101000000000 %"
b11100 G
b11100 h
b11010010000000001011000110 %
b11010010000000001011000110 _"
b1011 F
b1011 ,"
b1011 H
b1011 Z
b1011 ^
b1011 3
b1011 -"
b1010000 ;
b1010000 m
b1010000 y
b1100 <
b1100 o
b1100 |
b10011010000000001010000110 `"
b10011010000000001010000110 )
b0 N"
b0 +"
b10011 M"
b10011 *"
b0 J"
b0 @"
b110 I"
b110 ?"
b1100000001110000001011110001100000000001000 &"
b1100000001110000001011110001100000000001000 0
b10100000000001100 f
b10100000000001100 :
0#
0!
#145000
b101 b
b101 R
b101 [
b1101 _
b1010000001101 '
b1010000001101 e
b1101 V
b1101 \
b1100 `
b1100 ]
b1100 a
1#
1!
