tarea4/pruebaPIPE.vcd
$date
	Mon Jun 29 03:27:25 2015
$end
$version
	Icarus Verilog
$end
$timescale
	1ps
$end
$scope module tester $end
$var wire 1 ! clk $end
$var wire 1 " reset $end
$scope module test $end
$var reg 1 # clk $end
$var reg 1 $ reset $end
$upscope $end
$scope module pegado $end
$var wire 1 ! clk $end
$var wire 31 % inputReg_EX_MEM [30:0] $end
$var wire 47 & inputReg_ID_EX [46:0] $end
$var wire 26 ' inputReg_IF_ID [25:0] $end
$var wire 11 ( inputReg_MEM_WB [10:0] $end
$var wire 31 ) outReg_EX_MEM [30:0] $end
$var wire 8 * outReg_EX_MEM_AluResult_EX [7:0] $end
$var wire 3 + outReg_EX_MEM_ControlAcum_EX [2:0] $end
$var wire 2 , outReg_EX_MEM_MemControl_EX [1:0] $end
$var wire 31 - outReg_EX_MEM_bar [30:0] $end
$var wire 10 . outReg_EX_MEM_wBrDir_EX [9:0] $end
$var wire 47 / outReg_ID_EX [46:0] $end
$var wire 8 0 outReg_ID_EX_AcumA_ID [7:0] $end
$var wire 8 1 outReg_ID_EX_AcumB_ID [7:0] $end
$var wire 10 2 outReg_ID_EX_BrDir_ID [9:0] $end
$var wire 8 3 outReg_ID_EX_Constant_ID [7:0] $end
$var wire 3 4 outReg_ID_EX_ControlAcum_ID [2:0] $end
$var wire 2 5 outReg_ID_EX_MemControl_ID [1:0] $end
$var wire 6 6 outReg_ID_EX_Operation_ID [5:0] $end
$var wire 2 7 outReg_ID_EX_OutSelMux_ID [1:0] $end
$var wire 47 8 outReg_ID_EX_bar [46:0] $end
$var wire 26 9 outReg_IF_ID [25:0] $end
$var wire 16 : outReg_IF_ID_FetchedInstr [15:0] $end
$var wire 10 ; outReg_IF_ID_NewPC [9:0] $end
$var wire 26 < outReg_IF_ID_bar [25:0] $end
$var wire 11 = outReg_MEM_WB [10:0] $end
$var wire 3 > outReg_MEM_WB_ControlAcum_MEM [2:0] $end
$var wire 16 ? outReg_MEM_WB_DataToWB_MEM [15:0] $end
$var wire 11 @ outReg_MEM_WB_bar [10:0] $end
$var wire 1 " reset $end
$var wire 8 A wAcumA_ID [7:0] $end
$var wire 8 B wAcumB_ID [7:0] $end
$var wire 8 C wAluResult_EX [7:0] $end
$var wire 10 D wBrDir_EX [9:0] $end
$var wire 10 E wBrDir_ID [9:0] $end
$var wire 10 F wBrDir_IF [9:0] $end
$var wire 1 G wBrTaken_EX $end
$var wire 1 H wBrTaken_IF $end
$var wire 8 I wConstant_ID [7:0] $end
$var wire 3 J wControlAcum_EX [2:0] $end
$var wire 3 K wControlAcum_ID [2:0] $end
$var wire 3 L wControlAcum_ID_WB [2:0] $end
$var wire 3 M wControlAcum_MEM [2:0] $end
$var wire 8 N wDataToWB_MEM [7:0] $end
$var wire 8 O wData_WB [7:0] $end
$var wire 16 P wFetchedInst_IF [15:0] $end
$var wire 2 Q wMemControl_EX [1:0] $end
$var wire 2 R wMemControl_ID [1:0] $end
$var wire 10 S wNewPC_IF [9:0] $end
$var wire 6 T wOperation_ID [5:0] $end
$var wire 2 U wOutSelMux_ID [1:0] $end
$scope module etapa1 $end
$var wire 1 ! clk $end
$var wire 10 V iBr_dir [9:0] $end
$var wire 1 H iBr_taken $end
$var wire 16 W oFetchedInst [15:0] $end
$var wire 10 X oNew_pc [9:0] $end
$var wire 1 " reset $end
$var wire 10 Y wPc_pointer [9:0] $end
$scope module pcIF $end
$var wire 1 ! clk $end
$var wire 10 Z iBr_dir [9:0] $end
$var wire 1 H iBr_taken $end
$var wire 1 " reset $end
$var reg 10 [ oNew_pc [9:0] $end
$var reg 10 \ oPc_pointer [9:0] $end
$upscope $end
$scope module instructMem $end
$var wire 10 ] iDir [9:0] $end
$var reg 16 ^ oInstruc [15:0] $end
$var reg 10 _ rClear [9:0] $end
$upscope $end
$upscope $end
$scope module registro_IF_ID $end
$var wire 1 ! clk $end
$var wire 1 " clr $end
$var wire 1 ` enable $end
$var wire 26 a in [25:0] $end
$var reg 26 b out [25:0] $end
$var reg 26 c out_bar [25:0] $end
$upscope $end
$scope module etapa2 $end
$var wire 10 d branchDir [9:0] $end
$var wire 8 e constant [7:0] $end
$var wire 3 f controlAcum_ID [2:0] $end
$var wire 3 g controlAcum_WB [2:0] $end
$var wire 8 h data [7:0] $end
$var wire 16 i instr [15:0] $end
$var wire 2 j memControl [1:0] $end
$var wire 10 k newPC [9:0] $end
$var wire 6 l operation [5:0] $end
$var wire 2 m outSelMux [1:0] $end
$var wire 8 n salidaAcumA [7:0] $end
$var wire 8 o salidaAcumB [7:0] $end
$scope module acumuladores $end
$var wire 3 p control [2:0] $end
$var wire 8 q data [7:0] $end
$var reg 8 r salidaAcumA [7:0] $end
$var reg 8 s salidaAcumB [7:0] $end
$upscope $end
$scope module decodificador $end
$var wire 8 t constant [7:0] $end
$var wire 16 u instr [15:0] $end
$var wire 6 v instrDecod [5:0] $end
$var wire 10 w instrInfo [9:0] $end
$var wire 10 x newPC [9:0] $end
$var wire 6 y operation [5:0] $end
$var wire 6 z saltoRel [5:0] $end
$var reg 10 { branchDir [9:0] $end
$var reg 3 | controlAcum [2:0] $end
$var reg 2 } memControl [1:0] $end
$var reg 2 ~ outSelMux [1:0] $end
$upscope $end
$upscope $end
$scope module registro_ID_EX $end
$var wire 1 ! clk $end
$var wire 1 " clr $end
$var wire 1 !" enable $end
$var wire 47 "" in [46:0] $end
$var reg 47 #" out [46:0] $end
$var reg 47 $" out_bar [46:0] $end
$upscope $end
$scope module etapa3 $end
$var wire 10 %" branchDir_EX [9:0] $end
$var wire 10 &" branchDir_ID [9:0] $end
$var wire 1 G branchTaken $end
$var wire 8 '" iAcumA [7:0] $end
$var wire 8 (" iAcumB [7:0] $end
$var wire 6 )" iAluInstSel [5:0] $end
$var wire 8 *" iAluOper1 [7:0] $end
$var wire 8 +" iAluOper2 [7:0] $end
$var wire 8 ," iConst [7:0] $end
$var wire 3 -" iControlAcum_ID [2:0] $end
$var wire 2 ." iMemControl_ID [1:0] $end
$var wire 8 /" oAluData [7:0] $end
$var wire 3 0" oControlAcum_EX [2:0] $end
$var wire 2 1" oMemControl_EX [1:0] $end
$var wire 2 2" outSelMuxExe [1:0] $end
$scope module aluEx $end
$var wire 6 3" iAluInstSel [5:0] $end
$var wire 8 4" iAluOper1 [7:0] $end
$var wire 8 5" iAluOper2 [7:0] $end
$var wire 6 6" sReg [5:0] $end
$var reg 1 7" BAN $end
$var reg 1 8" BAZ $end
$var reg 1 9" BBN $end
$var reg 1 :" BBZ $end
$var reg 1 ;" BCA $end
$var reg 1 <" BCB $end
$var reg 1 =" branchTaken $end
$var reg 8 >" oAluData [7:0] $end
$upscope $end
$upscope $end
$scope module registro_EX_MEM $end
$var wire 1 ! clk $end
$var wire 1 " clr $end
$var wire 1 ?" enable $end
$var wire 31 @" in [30:0] $end
$var reg 31 A" out [30:0] $end
$var reg 31 B" out_bar [30:0] $end
$upscope $end
$scope module etapa4 $end
$var wire 10 C" iAddresReadNWrite [9:0] $end
$var wire 8 D" iAluDataEX [7:0] $end
$var wire 3 E" iControlAcum_EX [2:0] $end
$var wire 2 F" iOutMemSelect [1:0] $end
$var wire 1 ! memClk $end
$var wire 3 G" oControlAcum_MEM [2:0] $end
$var wire 8 H" oDataRamRead [7:0] $end
$var wire 8 I" oDataToWB [7:0] $end
$scope module DATA_MEM $end
$var wire 1 ! clk $end
$var wire 8 J" iDataMemIn [7:0] $end
$var wire 10 K" iReadDataAddress [9:0] $end
$var wire 10 L" iWriteDataAddress [9:0] $end
$var wire 1 M" iWriteDataEnable $end
$var wire 1 N" memEnable $end
$var reg 8 O" oDataMemOut [7:0] $end
$upscope $end
$upscope $end
$scope module registro_MEM_WB $end
$var wire 1 ! clk $end
$var wire 1 " clr $end
$var wire 1 P" enable $end
$var wire 11 Q" in [10:0] $end
$var reg 11 R" out [10:0] $end
$var reg 11 S" out_bar [10:0] $end
$upscope $end
$upscope $end
$upscope $end
$enddefinitions $end
#0
$dumpvars
bx S"
bx R"
bx Q"
1P"
bx O"
xN"
xM"
bx L"
bx K"
bx J"
bx I"
bx H"
bx G"
bx F"
bx E"
bx D"
bx C"
bx B"
bx A"
b0xxxxxxxxxxxxxxx @"
1?"
b0 >"
0="
x<"
x;"
x:"
x9"
x8"
x7"
bx 6"
bx 5"
bx 4"
bx 3"
bx 2"
bx 1"
bx 0"
b0 /"
bx ."
bx -"
bx ,"
bx +"
bx *"
bx )"
bx ("
bx '"
bx &"
bx %"
bx $"
bx #"
b0xxxxxxxxxxxxxxxxxxxxxxxxxxxxxxx ""
1!"
bx ~
bx }
bx |
bx {
bx z
bx y
bx x
bx w
bx v
bx u
bx t
b0 s
b0 r
bx q
bx p
b0 o
b0 n
bx m
bx l
bx k
bx j
bx i
bx h
bx g
bx f
bx e
bx d
bx c
bx b
b0xxxxxxxxxx a
1`
b0 _
b0 ^
bx ]
bx \
bx [
bx Z
bx Y
bx X
b0 W
bx V
bx U
bx T
bx S
bx R
bx Q
b0 P
bx O
bx N
bx M
bx L
bx K
bx J
bx I
0H
0G
bx F
bx E
bx D
b0 C
b0 B
b0 A
bx @
b0xxxxxxxx ?
bx >
bx =
bx <
bx ;
bx :
bx 9
bx 8
bx 7
bx 6
bx 5
bx 4
bx 3
bx 2
bx 1
bx 0
bx /
bx .
bx -
bx ,
bx +
bx *
bx )
bx (
b0xxxxxxxxxx '
b0xxxxxxxxxxxxxxxxxxxxxxxxxxxxxxx &
b0xxxxxxxxxxxxxxx %
0$
0#
0"
0!
$end
#5000
b0 {
b0 E
b0 d
b0 N
b0 I"
b0 I
b0 e
b0 t
b0 z
b0 }
b0 R
b0 j
b0 ~
b0 U
b0 m
b0 |
b0 K
b0 f
0N"
0M"
b0 v
b0 &
b0 ""
b0 T
b0 l
b0 y
b0 w
b0 *"
b0 4"
b0 +"
b0 5"
b0 .
b0 C"
b0 K"
b0 L"
b0 ,
b0 F"
b0 (
b0 Q"
b0 M
b0 G"
b0 +
b0 E"
b0 *
b0 D"
b0 J"
b0 O
b0 h
b0 q
b0 :
b0 i
b0 u
b0 ;
b0 k
b0 x
b0 0
b0 '"
b0 1
b0 ("
b0 D
b0 %"
b0 F
b0 V
b0 Z
b0 2
b0 &"
b0 7
b0 2"
b0 6
b0 )"
b0 3"
b0 3
b0 ,"
b0 J
b0 0"
b0 4
b0 -"
b0 %
b0 @"
b0 Q
b0 1"
b0 5
b0 ."
b0 >
b0 L
b0 g
b0 p
b0 ?
b1 c
b1 <
b0 b
b0 9
b1 $"
b1 8
b0 #"
b0 /
b1 B"
b1 -
b0 A"
b0 )
b1 S"
b1 @
b0 R"
b0 =
b100000000111 ^
b100000000111 P
b100000000111 W
b1 [
b1000000001110000000001 '
b1000000001110000000001 a
b1 S
b1 X
b0 \
b0 Y
b0 ]
1#
1!
1$
1"
#10000
0#
0!
#15000
1#
1!
#20000
0#
0!
#25000
1#
1!
#28000
0$
0"
#30000
b111 I
b111 e
b111 t
b111 z
b1 |
b1 K
b1 f
b10 v
b10 T
b10 l
b10 y
b111 w
b1000 {
b1000000000100000011100100 &
b1000000000100000011100100 ""
b1000 E
b1000 d
b100000000111 :
b100000000111 i
b100000000111 u
b1 ;
b1 k
b1 x
b0 c
b0 <
b1000000001110000000001 b
b1000000001110000000001 9
0#
0!
#35000
b110000000111 ^
b110000000111 P
b110000000111 W
b10 [
b1100000001110000000010 '
b1100000001110000000010 a
b10 S
b10 X
b1 \
b1 Y
b1 ]
1#
1!
#40000
07"
08"
bx0x0x 6"
b111 >"
b111 C
b111 /"
b11 |
b11 K
b11 f
b111 *"
b111 4"
b111 +"
b111 5"
b11 v
b11 T
b11 l
b11 y
b1001 {
b1001000000110000011101100 &
b1001000000110000011101100 ""
b1001 E
b1001 d
b1000 D
b1000 %"
b1000 F
b1000 V
b1000 Z
b1000 2
b1000 &"
b10 6
b10 )"
b10 3"
b111 3
b111 ,"
b111001000000001000 %
b111001000000001000 @"
b1 J
b1 0"
b1 4
b1 -"
b110000000111 :
b110000000111 i
b110000000111 u
b10 ;
b10 k
b10 x
b0 $"
b0 8
b1000000000100000011100100 #"
b1000000000100000011100100 /
b1100000001110000000010 b
b1100000001110000000010 9
0#
0!
#45000
b0 ^
b0 P
b0 W
b11 [
b11 '
b11 a
b11 S
b11 X
b10 \
b10 Y
b10 ]
1#
1!
#50000
x7"
09"
x8"
0:"
bx0x0 6"
b0 I
b0 e
b0 t
b0 z
b0 |
b0 K
b0 f
b111 N
b111 I"
b0 v
b0 T
b0 l
b0 y
b0 w
b11 {
b11000000000000000000000 &
b11000000000000000000000 ""
b11 E
b11 d
b1000 .
b1000 C"
b1000 K"
b1000 L"
b111001 (
b111001 Q"
b1 M
b1 G"
b1 +
b1 E"
b111 *
b111 D"
b111 J"
b0 :
b0 i
b0 u
b11 ;
b11 k
b11 x
b1001 D
b1001 %"
b1001 F
b1001 V
b1001 Z
b1001 2
b1001 &"
b11 6
b11 )"
b11 3"
b111011000000001001 %
b111011000000001001 @"
b11 J
b11 0"
b11 4
b11 -"
b11 b
b11 9
b1001000000110000011101100 #"
b1001000000110000011101100 /
b0 B"
b0 -
b111001000000001000 A"
b111001000000001000 )
0#
0!
#55000
b100 [
b100 '
b100 a
b100 S
b100 X
b11 \
b11 Y
b11 ]
1#
1!
#60000
b0 >"
b0 C
b0 /"
b111 r
b111 A
b111 n
b111 O
b111 h
b111 q
b1001 .
b1001 C"
b1001 K"
b1001 L"
b111011 (
b111011 Q"
b11 M
b11 G"
b11 +
b11 E"
b0 *"
b0 4"
b0 +"
b0 5"
b100 {
b111000000000000000100000000000000000000000 &
b111000000000000000100000000000000000000000 ""
b100 E
b100 d
b1 >
b1 L
b1 g
b1 p
b111 ?
b11 D
b11 %"
b11 F
b11 V
b11 Z
b11 2
b11 &"
b0 6
b0 )"
b0 3"
b0 3
b0 ,"
b11 %
b11 @"
b0 J
b0 0"
b0 4
b0 -"
b100 ;
b100 k
b100 x
b0 S"
b0 @
b111001 R"
b111001 =
b111011000000001001 A"
b111011000000001001 )
b11000000000000000000000 #"
b11000000000000000000000 /
b100 b
b100 9
0#
0!
#65000
b10110000000000 ^
b10110000000000 P
b10110000000000 W
b101 [
b101100000000000000000101 '
b101100000000000000000101 a
b101 S
b101 X
b100 \
b100 Y
b100 ]
1#
1!
#70000
b11 ~
b11 U
b11 m
b100 |
b100 K
b100 f
b0 N
b0 I"
b1011 v
b1011 T
b1011 l
b1011 y
b101 {
b101 E
b101 d
b11 .
b11 C"
b11 K"
b11 L"
b0 (
b0 Q"
b0 M
b0 G"
b0 +
b0 E"
b0 *
b0 D"
b0 J"
b111 s
b111000001110000000101110010110000000010000 &
b111000001110000000101110010110000000010000 ""
b111 B
b111 o
b10110000000000 :
b10110000000000 i
b10110000000000 u
b101 ;
b101 k
b101 x
b111 0
b111 '"
b100 %
b100 @"
b100 D
b100 %"
b100 F
b100 V
b100 Z
b100 2
b100 &"
b11 >
b11 L
b11 g
b11 p
b101100000000000000000101 b
b101100000000000000000101 9
b111000000000000000100000000000000000000000 #"
b111000000000000000100000000000000000000000 /
b11 A"
b11 )
b111011 R"
b111011 =
0#
0!
#75000
b111110000110000 ^
b111110000110000 P
b111110000110000 W
b110 [
b1111100001100000000000110 '
b1111100001100000000000110 a
b110 S
b110 X
b101 \
b101 Y
b101 ]
1#
1!
#80000
1:"
0<"
bx0x1x0 6"
b111 *"
b111 4"
b111 +"
b111 5"
b110000 I
b110000 e
b110000 t
b110000 z
b0 ~
b0 U
b0 m
b0 |
b0 K
b0 f
b0 O
b0 h
b0 q
b100 .
b100 C"
b100 K"
b100 L"
b11111 v
b11111 T
b11111 l
b11111 y
b110000 w
b110110 {
b111000001110000110110000111110011000000000 &
b111000001110000110110000111110011000000000 ""
b110110 E
b110110 d
b0 >
b0 L
b0 g
b0 p
b0 ?
b111 1
b111 ("
b101 D
b101 %"
b101 F
b101 V
b101 Z
b101 2
b101 &"
b11 7
b11 2"
b1011 6
b1011 )"
b1011 3"
b100000000000101 %
b100000000000101 @"
b100 J
b100 0"
b100 4
b100 -"
b111110000110000 :
b111110000110000 i
b111110000110000 u
b110 ;
b110 k
b110 x
b1 S"
b1 @
b0 R"
b0 =
b100 A"
b100 )
b111000001110000000101110010110000000010000 #"
b111000001110000000101110010110000000010000 /
b1111100001100000000000110 b
b1111100001100000000000110 9
0#
0!
#85000
b0 ^
b0 P
b0 W
b111 [
b111 '
b111 a
b111 S
b111 X
b110 \
b110 Y
b110 ]
1#
1!
#90000
1="
1G
1H
b0 I
b0 e
b0 t
b0 z
b110000 *"
b110000 4"
b110000 +"
b110000 5"
b0 v
b0 T
b0 l
b0 y
b0 w
b111 {
b111000001110000000111000000000000000000000 &
b111000001110000000111000000000000000000000 ""
b111 E
b111 d
b101 .
b101 C"
b101 K"
b101 L"
b100 (
b100 Q"
b100 M
b100 G"
b100 +
b100 E"
b0 :
b0 i
b0 u
b111 ;
b111 k
b111 x
b110110 D
b110110 %"
b110110 F
b110110 V
b110110 Z
b110110 2
b110110 &"
b0 7
b0 2"
b11111 6
b11111 )"
b11111 3"
b110000 3
b110000 ,"
b110110 %
b110110 @"
b0 J
b0 0"
b0 4
b0 -"
b111 b
b111 9
b111000001110000110110000111110011000000000 #"
b111000001110000110110000111110011000000000 /
b100000000000101 A"
b100000000000101 )
0#
0!
#95000
b110111 [
b110111 '
b110111 a
b110111 S
b110111 X
b110110 \
b110110 Y
b110110 ]
1#
1!
#100000
0="
0G
0H
b0 s
b0 B
b0 o
b110110 .
b110110 C"
b110110 K"
b110110 L"
b0 (
b0 Q"
b0 M
b0 G"
b0 +
b0 E"
b0 *"
b0 4"
b0 +"
b0 5"
b110111 {
b111000000000000110111000000000000000000000 &
b111000000000000110111000000000000000000000 ""
b110111 E
b110111 d
b100 >
b100 L
b100 g
b100 p
b111 %
b111 @"
b111 D
b111 %"
b111 F
b111 V
b111 Z
b111 2
b111 &"
b0 6
b0 )"
b0 3"
b0 3
b0 ,"
b110111 ;
b110111 k
b110111 x
b0 S"
b0 @
b100 R"
b100 =
b110110 A"
b110110 )
b111000001110000000111000000000000000000000 #"
b111000001110000000111000000000000000000000 /
b110111 b
b110111 9
0#
0!
#105000
b110000100101 ^
b110000100101 P
b110000100101 W
b111000 [
b1100001001010000111000 '
b1100001001010000111000 a
b111000 S
b111000 X
b110111 \
b110111 Y
b110111 ]
1#
1!
#110000
b100101 I
b100101 e
b100101 t
b100101 z
b11 |
b11 K
b11 f
b11 v
b11 T
b11 l
b11 y
b100101 w
b1011101 {
b111000000000001011101000000110010010101100 &
b111000000000001011101000000110010010101100 ""
b1011101 E
b1011101 d
b111 .
b111 C"
b111 K"
b111 L"
b110000100101 :
b110000100101 i
b110000100101 u
b111000 ;
b111000 k
b111000 x
b0 1
b0 ("
b110111 %
b110111 @"
b110111 D
b110111 %"
b110111 F
b110111 V
b110111 Z
b110111 2
b110111 &"
b0 >
b0 L
b0 g
b0 p
b1100001001010000111000 b
b1100001001010000111000 9
b111000000000000110111000000000000000000000 #"
b111000000000000110111000000000000000000000 /
b111 A"
b111 )
b1 S"
b1 @
b0 R"
b0 =
0#
0!
#115000
b0 ^
b0 P
b0 W
b111001 [
b111001 '
b111001 a
b111001 S
b111001 X
b111000 \
b111000 Y
b111000 ]
1#
1!
#120000
07"
18"
0:"
bx01000 6"
b100101 >"
b100101 C
b100101 /"
b0 I
b0 e
b0 t
b0 z
b0 |
b0 K
b0 f
b110111 .
b110111 C"
b110111 K"
b110111 L"
b100101 *"
b100101 4"
b100101 +"
b100101 5"
b0 v
b0 T
b0 l
b0 y
b0 w
b111001 {
b111000000000000111001000000000000000000000 &
b111000000000000111001000000000000000000000 ""
b111001 E
b111001 d
b1011101 D
b1011101 %"
b1011101 F
b1011101 V
b1011101 Z
b1011101 2
b1011101 &"
b11 6
b11 )"
b11 3"
b100101 3
b100101 ,"
b100101011000001011101 %
b100101011000001011101 @"
b11 J
b11 0"
b11 4
b11 -"
b0 :
b0 i
b0 u
b111001 ;
b111001 k
b111001 x
b110111 A"
b110111 )
b111000000000001011101000000110010010101100 #"
b111000000000001011101000000110010010101100 /
b111001 b
b111001 9
0#
0!
#125000
b111010 [
b111010 '
b111010 a
b111010 S
b111010 X
b111001 \
b111001 Y
b111001 ]
1#
1!
#130000
b0 >"
b0 C
b0 /"
b100101 N
b100101 I"
b111010 {
b111000000000000111010000000000000000000000 &
b111000000000000111010000000000000000000000 ""
b111010 E
b111010 d
b0 *"
b0 4"
b0 +"
b0 5"
b1011101 .
b1011101 C"
b1011101 K"
b1011101 L"
b100101011 (
b100101011 Q"
b11 M
b11 G"
b11 +
b11 E"
b100101 *
b100101 D"
b100101 J"
b111010 ;
b111010 k
b111010 x
b111001 D
b111001 %"
b111001 F
b111001 V
b111001 Z
b111001 2
b111001 &"
b0 6
b0 )"
b0 3"
b0 3
b0 ,"
b111001 %
b111001 @"
b0 J
b0 0"
b0 4
b0 -"
b111010 b
b111010 9
b111000000000000111001000000000000000000000 #"
b111000000000000111001000000000000000000000 /
b100101011000001011101 A"
b100101011000001011101 )
0#
0!
#135000
b111011 [
b111011 '
b111011 a
b111011 S
b111011 X
b111010 \
b111010 Y
b111010 ]
1#
1!
#140000
b0 N
b0 I"
b100101 s
b100101 B
b100101 o
b100101 O
b100101 h
b100101 q
b111001 .
b111001 C"
b111001 K"
b111001 L"
b0 (
b0 Q"
b0 M
b0 G"
b0 +
b0 E"
b0 *
b0 D"
b0 J"
b111011 {
b111001001010000111011000000000000000000000 &
b111001001010000111011000000000000000000000 ""
b111011 E
b111011 d
b11 >
b11 L
b11 g
b11 p
b100101 ?
b111010 %
b111010 @"
b111010 D
b111010 %"
b111010 F
b111010 V
b111010 Z
b111010 2
b111010 &"
b111011 ;
b111011 k
b111011 x
b0 S"
b0 @
b100101011 R"
b100101011 =
b111001 A"
b111001 )
b111000000000000111010000000000000000000000 #"
b111000000000000111010000000000000000000000 /
b111011 b
b111011 9
0#
0!
#145000
b111100 [
b111100 '
b111100 a
b111100 S
b111100 X
b111011 \
b111011 Y
b111011 ]
1#
1!
#150000
b111100 {
b111001001010000111100000000000000000000000 &
b111001001010000111100000000000000000000000 ""
b111100 E
b111100 d
b111010 .
b111010 C"
b111010 K"
b111010 L"
b0 O
b0 h
b0 q
b111100 ;
b111100 k
b111100 x
b100101 1
b100101 ("
b111011 %
b111011 @"
b111011 D
b111011 %"
b111011 F
b111011 V
b111011 Z
b111011 2
b111011 &"
b0 >
b0 L
b0 g
b0 p
b0 ?
b111100 b
b111100 9
b111001001010000111011000000000000000000000 #"
b111001001010000111011000000000000000000000 /
b111010 A"
b111010 )
b1 S"
b1 @
b0 R"
b0 =
0#
0!
#155000
b111101 [
b111101 '
b111101 a
b111101 S
b111101 X
b111100 \
b111100 Y
b111100 ]
1#
1!
#160000
b111011 .
b111011 C"
b111011 K"
b111011 L"
b111101 {
b111001001010000111101000000000000000000000 &
b111001001010000111101000000000000000000000 ""
b111101 E
b111101 d
b111100 %
b111100 @"
b111100 D
b111100 %"
b111100 F
b111100 V
b111100 Z
b111100 2
b111100 &"
b111101 ;
b111101 k
b111101 x
b111011 A"
b111011 )
b111001001010000111100000000000000000000000 #"
b111001001010000111100000000000000000000000 /
b111101 b
b111101 9
0#
0!
#165000
b111110 [
b111110 '
b111110 a
b111110 S
b111110 X
b111101 \
b111101 Y
b111101 ]
1#
1!
#170000
b111110 {
b111001001010000111110000000000000000000000 &
b111001001010000111110000000000000000000000 ""
b111110 E
b111110 d
b111100 .
b111100 C"
b111100 K"
b111100 L"
b111110 ;
b111110 k
b111110 x
b111101 %
b111101 @"
b111101 D
b111101 %"
b111101 F
b111101 V
b111101 Z
b111101 2
b111101 &"
b111110 b
b111110 9
b111001001010000111101000000000000000000000 #"
b111001001010000111101000000000000000000000 /
b111100 A"
b111100 )
0#
0!
#175000
b111111 [
b111111 '
b111111 a
b111111 S
b111111 X
b111110 \
b111110 Y
b111110 ]
1#
1!
#180000
b111101 .
b111101 C"
b111101 K"
b111101 L"
b111111 {
b111001001010000111111000000000000000000000 &
b111001001010000111111000000000000000000000 ""
b111111 E
b111111 d
b111110 %
b111110 @"
b111110 D
b111110 %"
b111110 F
b111110 V
b111110 Z
b111110 2
b111110 &"
b111111 ;
b111111 k
b111111 x
b111101 A"
b111101 )
b111001001010000111110000000000000000000000 #"
b111001001010000111110000000000000000000000 /
b111111 b
b111111 9
0#
0!
#185000
b1000000 [
b1000000 '
b1000000 a
b1000000 S
b1000000 X
b111111 \
b111111 Y
b111111 ]
1#
1!
#190000
b1000000 {
b111001001010001000000000000000000000000000 &
b111001001010001000000000000000000000000000 ""
b1000000 E
b1000000 d
b111110 .
b111110 C"
b111110 K"
b111110 L"
b1000000 ;
b1000000 k
b1000000 x
b111111 %
b111111 @"
b111111 D
b111111 %"
b111111 F
b111111 V
b111111 Z
b111111 2
b111111 &"
b1000000 b
b1000000 9
b111001001010000111111000000000000000000000 #"
b111001001010000111111000000000000000000000 /
b111110 A"
b111110 )
0#
0!
#195000
b1000001 [
b1000001 '
b1000001 a
b1000001 S
b1000001 X
b1000000 \
b1000000 Y
b1000000 ]
1#
1!
